[
    {
        "dataset": "alg514",
        "text": "2 teams of scientists leave a university at the same time in special vans to search for tornadoes . the 1st team travel east at 20 miles per hour and the 2nd team travels west at 30 miles per hour . their radios have a range of 125 miles . How much time will pass before the scientists lose radio contact ?",
        "equations": [
            "125.0 / ( 20.0 + 30.0 ) = x"
        ],
        "index": 2884,
        "solutions": [
            2.5
        ],
        "num_text": "NUM_1 teams of scientists leave a university at the same time in special vans to search for tornadoes . the 1st team travel east at NUM_2 miles per hour and the 2nd team travels west at NUM_3 miles per hour . their radios have a range of NUM_4 miles . How much time will pass before the scientists lose radio contact ?",
        "num_index": {
            "2": "NUM_1",
            "2.0": "NUM_1",
            "2.00": "NUM_1",
            "20": "NUM_2",
            "20.0": "NUM_2",
            "20.00": "NUM_2",
            "30": "NUM_3",
            "30.0": "NUM_3",
            "30.00": "NUM_3",
            "125": "NUM_4",
            "125.0": "NUM_4",
            "125.00": "NUM_4"
        },
        "num_eq": [
            "NUM_4 / ( NUM_2 + NUM_3 ) = x"
        ]
    },
    {
        "dataset": "alg514",
        "text": "Two cars leave the same point , traveling in opposite directions . If one travels at a constant speed of 52 miles per hour and the other travels at a constant speed of 58 miles per hour . In how many hours will they be 385 miles apart ?",
        "equations": [
            "385.0 / ( 52.0 + 58.0 ) = x"
        ],
        "index": 2885,
        "solutions": [
            3.5
        ],
        "num_text": "NUM_1 cars leave the same point , traveling in opposite directions . If NUM_2 travels at a constant speed of NUM_3 miles per hour and the other travels at a constant speed of NUM_4 miles per hour . In how many hours will they be NUM_5 miles apart ?",
        "num_index": {
            "2": "NUM_1",
            "2.0": "NUM_1",
            "2.00": "NUM_1",
            "1": "NUM_2",
            "1.0": "NUM_2",
            "1.00": "NUM_2",
            "52": "NUM_3",
            "52.0": "NUM_3",
            "52.00": "NUM_3",
            "58": "NUM_4",
            "58.0": "NUM_4",
            "58.00": "NUM_4",
            "385": "NUM_5",
            "385.0": "NUM_5",
            "385.00": "NUM_5"
        },
        "num_eq": [
            "NUM_5 / ( NUM_3 + NUM_4 ) = x"
        ]
    },
    {
        "dataset": "alg514",
        "text": "0.4 of Joe 's income each month goes to taxes . If she pays 848 dollars in taxes each month , what is her monthly income in dollars ?",
        "equations": [
            "848.0 / 0.4 = x"
        ],
        "index": 2898,
        "solutions": [
            2120.0
        ],
        "num_text": "NUM_1 of Joe ' s income each month goes to taxes . If she pays NUM_2 dollars in taxes each month , what is her monthly income in dollars ?",
        "num_index": {
            "0.4": "NUM_1",
            "848": "NUM_2",
            "848.0": "NUM_2",
            "848.00": "NUM_2"
        },
        "num_eq": [
            "NUM_2 / NUM_1 = x"
        ]
    },
    {
        "dataset": "alg514",
        "text": "A student is pricing 2 different picture packages . John 's Photo World charges 2.75 dollars per sheet and a one time sitting fee of 125 dollars . Sam 's Picture Emporium charges 1.50 dollars per sheet and a one time sitting fee of 140 dollars . For how many sheets of pictures do the 2 companies charge the same amount ?",
        "equations": [
            "( 140.0 - 125.0 ) / ( 2.75 - 1.5 ) = x"
        ],
        "index": 2901,
        "solutions": [
            12.0
        ],
        "num_text": "A student is pricing NUM_1 different picture packages . John ' s Photo World charges NUM_2 dollars per sheet and a NUM_3 time sitting fee of NUM_4 dollars . Sam ' s Picture Emporium charges NUM_5 dollars per sheet and a NUM_3 time sitting fee of NUM_6 dollars . For how many sheets of pictures do the NUM_1 companies charge the same amount ?",
        "num_index": {
            "2": "NUM_1",
            "2.0": "NUM_1",
            "2.00": "NUM_1",
            "2.75": "NUM_2",
            "1": "NUM_3",
            "1.0": "NUM_3",
            "1.00": "NUM_3",
            "125": "NUM_4",
            "125.0": "NUM_4",
            "125.00": "NUM_4",
            "1.50": "NUM_5",
            "1.5": "NUM_5",
            "140": "NUM_6",
            "140.0": "NUM_6",
            "140.00": "NUM_6"
        },
        "num_eq": [
            "( NUM_6 - NUM_4 ) / ( NUM_2 - NUM_5 ) = x"
        ]
    },
    {
        "dataset": "alg514",
        "text": "Michael rented a truck for one day . There was a rental fee of 20.99 dollars , and there also was a charge of 25 cents for each mile . Michael paid 95.74 dollars when he returned the truck . For how many miles did he drive the truck ?",
        "equations": [
            "( 95.74 - 20.99 ) / 0.25 = x"
        ],
        "index": 2907,
        "solutions": [
            299.0
        ],
        "num_text": "Michael rented a truck for NUM_1 day . There was a rental fee of NUM_2 dollars , and there also was a charge of NUM_3 cents for each mile . Michael paid NUM_4 dollars when he returned the truck . For how many miles did he drive the truck ?",
        "num_index": {
            "1": "NUM_1",
            "1.0": "NUM_1",
            "1.00": "NUM_1",
            "20.99": "NUM_2",
            "25": "NUM_3",
            "25.0": "NUM_3",
            "25.00": "NUM_3",
            "95.74": "NUM_4"
        },
        "num_eq": [
            "( NUM_4 - NUM_2 ) / 0.25 = x"
        ]
    },
    {
        "dataset": "alg514",
        "text": "0.5 of a certain number is 10 more than 0.1667 of a number . Find the number .",
        "equations": [
            "10.0 / ( 0.5 - 0.1667 ) = x"
        ],
        "index": 2914,
        "solutions": [
            30.003
        ],
        "num_text": "NUM_1 of a certain number is NUM_2 more than NUM_3 of a number . Find the number .",
        "num_index": {
            "0.5": "NUM_1",
            "10": "NUM_2",
            "10.0": "NUM_2",
            "10.00": "NUM_2",
            "0.1667": "NUM_3"
        },
        "num_eq": [
            "NUM_2 / ( NUM_1 - NUM_3 ) = x"
        ]
    },
    {
        "dataset": "alg514",
        "text": "kevin bought 3 muffins and a bottle of juice that cost 1.45 dollars . He paid a total of 3.70 dollars . How much did each muffin cost ?",
        "equations": [
            "( 3.7 - 1.45 ) / 3.0 = x"
        ],
        "index": 2926,
        "solutions": [
            0.75
        ],
        "num_text": "kevin bought NUM_1 muffins and a bottle of juice that cost NUM_2 dollars . He paid a total of NUM_3 dollars . How much did each muffin cost ?",
        "num_index": {
            "3": "NUM_1",
            "3.0": "NUM_1",
            "3.00": "NUM_1",
            "1.45": "NUM_2",
            "3.70": "NUM_3",
            "3.7": "NUM_3"
        },
        "num_eq": [
            "( NUM_3 - NUM_2 ) / NUM_1 = x"
        ]
    },
    {
        "dataset": "alg514",
        "text": "Manuel opened a savings account with an initial deposit of 177 dollars . If he wants to save 500 dollars during the next 19 weeks , how much must he save each week , in dollars ?",
        "equations": [
            "( 500.0 - 177.0 ) / 19.0 = x"
        ],
        "index": 2932,
        "solutions": [
            17.0
        ],
        "num_text": "Manuel opened a savings account with an initial deposit of NUM_1 dollars . If he wants to save NUM_2 dollars during the next NUM_3 weeks , how much must he save each week , in dollars ?",
        "num_index": {
            "177": "NUM_1",
            "177.0": "NUM_1",
            "177.00": "NUM_1",
            "500": "NUM_2",
            "500.0": "NUM_2",
            "500.00": "NUM_2",
            "19": "NUM_3",
            "19.0": "NUM_3",
            "19.00": "NUM_3"
        },
        "num_eq": [
            "( NUM_2 - NUM_1 ) / NUM_3 = x"
        ]
    },
    {
        "dataset": "alg514",
        "text": "Seven times a number is the same as 12 more than 3 times the number . Find the number .",
        "equations": [
            "12.0 / ( 7.0 - 3.0 ) = x"
        ],
        "index": 2951,
        "solutions": [
            3.0
        ],
        "num_text": "NUM_1 times a number is the same as NUM_2 more than NUM_3 times the number . Find the number .",
        "num_index": {
            "7": "NUM_1",
            "7.0": "NUM_1",
            "7.00": "NUM_1",
            "12": "NUM_2",
            "12.0": "NUM_2",
            "12.00": "NUM_2",
            "3": "NUM_3",
            "3.0": "NUM_3",
            "3.00": "NUM_3"
        },
        "num_eq": [
            "NUM_2 / ( NUM_1 - NUM_3 ) = x"
        ]
    },
    {
        "dataset": "alg514",
        "text": "The sum of 0.75 of a number and two is eight . Find the number .",
        "equations": [
            "( 8.0 - 2.0 ) / 0.75 = x"
        ],
        "index": 2952,
        "solutions": [
            8.0
        ],
        "num_text": "The sum of NUM_1 of a number and NUM_2 is NUM_3 . Find the number .",
        "num_index": {
            "0.75": "NUM_1",
            "2": "NUM_2",
            "2.0": "NUM_2",
            "2.00": "NUM_2",
            "8": "NUM_3",
            "8.0": "NUM_3",
            "8.00": "NUM_3"
        },
        "num_eq": [
            "( NUM_3 - NUM_2 ) / NUM_1 = x"
        ]
    },
    {
        "dataset": "alg514",
        "text": "0.20 of a number decreased by 4 is equal to 6 . Find the number .",
        "equations": [
            "( 6.0 + 4.0 ) / 0.2 = x"
        ],
        "index": 2953,
        "solutions": [
            50.0
        ],
        "num_text": "NUM_1 of a number decreased by NUM_2 is equal to NUM_3 . Find the number .",
        "num_index": {
            "0.20": "NUM_1",
            "0.2": "NUM_1",
            "4": "NUM_2",
            "4.0": "NUM_2",
            "4.00": "NUM_2",
            "6": "NUM_3",
            "6.0": "NUM_3",
            "6.00": "NUM_3"
        },
        "num_eq": [
            "( NUM_3 + NUM_2 ) / NUM_1 = x"
        ]
    },
    {
        "dataset": "alg514",
        "text": "A plane travels due East at 325 miles per hour and another plane travels due west at 275 miles per hour . If they leave at the same time , and from the same place , in how many hours will they be 2100 miles apart ?",
        "equations": [
            "2100.0 / ( 325.0 + 275.0 ) = x"
        ],
        "index": 2955,
        "solutions": [
            3.5
        ],
        "num_text": "A plane travels due East at NUM_1 miles per hour and another plane travels due west at NUM_2 miles per hour . If they leave at the same time , and from the same place , in how many hours will they be NUM_3 miles apart ?",
        "num_index": {
            "325": "NUM_1",
            "325.0": "NUM_1",
            "325.00": "NUM_1",
            "275": "NUM_2",
            "275.0": "NUM_2",
            "275.00": "NUM_2",
            "2100": "NUM_3",
            "2100.0": "NUM_3",
            "2100.00": "NUM_3"
        },
        "num_eq": [
            "NUM_3 / ( NUM_1 + NUM_2 ) = x"
        ]
    },
    {
        "dataset": "alg514",
        "text": "A 12 ounce can of cranberry juice sells for 84 cents . Give the unit cost in cents per ounce .",
        "equations": [
            "84.0 / 12.0 = x"
        ],
        "index": 2956,
        "solutions": [
            7.0
        ],
        "num_text": "A NUM_1 ounce can of cranberry juice sells for NUM_2 cents . Give the unit cost in cents per ounce .",
        "num_index": {
            "12": "NUM_1",
            "12.0": "NUM_1",
            "12.00": "NUM_1",
            "84": "NUM_2",
            "84.0": "NUM_2",
            "84.00": "NUM_2"
        },
        "num_eq": [
            "NUM_2 / NUM_1 = x"
        ]
    },
    {
        "dataset": "alg514",
        "text": "7 less than 4 times a number equals 13 . What is the number ?",
        "equations": [
            "( 13.0 + 7.0 ) / 4.0 = x"
        ],
        "index": 2965,
        "solutions": [
            5.0
        ],
        "num_text": "NUM_1 less than NUM_2 times a number equals NUM_3 . What is the number ?",
        "num_index": {
            "7": "NUM_1",
            "7.0": "NUM_1",
            "7.00": "NUM_1",
            "4": "NUM_2",
            "4.0": "NUM_2",
            "4.00": "NUM_2",
            "13": "NUM_3",
            "13.0": "NUM_3",
            "13.00": "NUM_3"
        },
        "num_eq": [
            "( NUM_3 + NUM_1 ) / NUM_2 = x"
        ]
    },
    {
        "dataset": "alg514",
        "text": "2 trains leave simultaneously traveling on the same track in opposite directions at speeds of 50 and 64 miles per hour . How many hours will it take before they are 285 miles apart ?",
        "equations": [
            "285.0 / ( 50.0 + 64.0 ) = x"
        ],
        "index": 2967,
        "solutions": [
            2.5
        ],
        "num_text": "NUM_1 trains leave simultaneously traveling on the same track in opposite directions at speeds of NUM_2 and NUM_3 miles per hour . How many hours will it take before they are NUM_4 miles apart ?",
        "num_index": {
            "2": "NUM_1",
            "2.0": "NUM_1",
            "2.00": "NUM_1",
            "50": "NUM_2",
            "50.0": "NUM_2",
            "50.00": "NUM_2",
            "64": "NUM_3",
            "64.0": "NUM_3",
            "64.00": "NUM_3",
            "285": "NUM_4",
            "285.0": "NUM_4",
            "285.00": "NUM_4"
        },
        "num_eq": [
            "NUM_4 / ( NUM_2 + NUM_3 ) = x"
        ]
    },
    {
        "dataset": "alg514",
        "text": "0.833 of a number is -60 . What is the number ?",
        "equations": [
            "( - 60.0 ) / 0.833 = x"
        ],
        "index": 2971,
        "solutions": [
            -72.0288
        ],
        "num_text": "NUM_1 of a number is - NUM_2 . What is the number ?",
        "num_index": {
            "0.833": "NUM_1",
            "60": "NUM_2",
            "60.0": "NUM_2",
            "60.00": "NUM_2"
        },
        "num_eq": [
            "( - NUM_2 ) / NUM_1 = x"
        ]
    },
    {
        "dataset": "alg514",
        "text": "Trenton sells electronic supplies . Each week he earns 190 dollars plus commission equal to 4 % of his sales . This week his goal is to earn no less than 500 dollars . Write and solve an inequality to find the amount of sales he must make to reach his goal .",
        "equations": [
            "( 500.0 - 190.0 ) / ( 4.0 * 0.01 ) = x"
        ],
        "index": 2974,
        "solutions": [
            7750.0
        ],
        "num_text": "Trenton sells electronic supplies . Each week he earns NUM_1 dollars plus commission equal to NUM_2 % of his sales . This week his goal is to earn no less than NUM_3 dollars . Write and solve an inequality to find the amount of sales he must make to reach his goal .",
        "num_index": {
            "190": "NUM_1",
            "190.0": "NUM_1",
            "190.00": "NUM_1",
            "4": "NUM_2",
            "4.0": "NUM_2",
            "4.00": "NUM_2",
            "500": "NUM_3",
            "500.0": "NUM_3",
            "500.00": "NUM_3"
        },
        "num_eq": [
            "( NUM_3 - NUM_1 ) / ( NUM_2 * 0.01 ) = x"
        ]
    },
    {
        "dataset": "alg514",
        "text": "Freeport McMoran projects that in 2010 the world grain supply will be 1800000 metric tons and the supply will be only 0.75 of the world grain demand . What will the world grain demand be in 2010 ?",
        "equations": [
            "1800000.0 / 0.75 = x"
        ],
        "index": 2977,
        "solutions": [
            2400000.0
        ],
        "num_text": "Freeport McMoran projects that in NUM_1 the world grain supply will be NUM_2 metric tons and the supply will be only NUM_3 of the world grain demand . What will the world grain demand be in NUM_1 ?",
        "num_index": {
            "2010": "NUM_1",
            "2010.0": "NUM_1",
            "2010.00": "NUM_1",
            "1800000": "NUM_2",
            "1800000.0": "NUM_2",
            "1800000.00": "NUM_2",
            "0.75": "NUM_3"
        },
        "num_eq": [
            "NUM_2 / NUM_3 = x"
        ]
    },
    {
        "dataset": "alg514",
        "text": "The product of 10 and a number is the same as 36 less twice that same number . Find the number .",
        "equations": [
            "( ( 2.0 * x ) - 36.0 ) / 10.0 = x"
        ],
        "index": 2999,
        "solutions": [
            -4.5
        ],
        "num_text": "The product of NUM_1 and a number is the same as NUM_2 less twice that same number . Find the number .",
        "num_index": {
            "10": "NUM_1",
            "10.0": "NUM_1",
            "10.00": "NUM_1",
            "36": "NUM_2",
            "36.0": "NUM_2",
            "36.00": "NUM_2"
        },
        "num_eq": [
            "( ( 2.0 * x ) - NUM_2 ) / NUM_1 = x"
        ]
    },
    {
        "dataset": "alg514",
        "text": "Northwest Molded molds plastic handles which cost 0.60 dollars per handle to mold . The fixed cost to run the molding machine is 7640 dollars per week . If the company sells the handles for 4.60 dollars each , how many handles must be molded and sold weekly to break even ?",
        "equations": [
            "7640.0 / ( 4.6 - 0.6) = x"
        ],
        "index": 3007,
        "solutions": [
            1910.0
        ],
        "num_text": "Northwest Molded molds plastic handles which cost NUM_1 dollars per handle to mold . The fixed cost to run the molding machine is NUM_2 dollars per week . If the company sells the handles for NUM_3 dollars each , how many handles must be molded and sold weekly to break even ?",
        "num_index": {
            "0.60": "NUM_1",
            "0.6": "NUM_1",
            "7640": "NUM_2",
            "7640.0": "NUM_2",
            "7640.00": "NUM_2",
            "4.60": "NUM_3",
            "4.6": "NUM_3"
        },
        "num_eq": [
            "NUM_2 / ( NUM_3 - NUM_1 ) = x"
        ]
    },
    {
        "dataset": "alg514",
        "text": "A small publishing company has a 1 time product cost for editing and printing of 56,430.00 dollars . Variable cost per book is 8.25 dollars . The publisher is selling the book to the store for 21.75 dollars . How many books must the publisher print and sell so that the production cost will equal the money obtained from sells ?",
        "equations": [
            "56430.0 / ( 21.75 - 8.25 ) = x"
        ],
        "index": 3025,
        "solutions": [
            4180.0
        ],
        "num_text": "A small publishing company has a NUM_1 time product cost for editing and printing of NUM_2 dollars . Variable cost per book is NUM_3 dollars . The publisher is selling the book to the store for NUM_4 dollars . How many books must the publisher print and sell so that the production cost will equal the money obtained from sells ?",
        "num_index": {
            "1": "NUM_1",
            "1.0": "NUM_1",
            "1.00": "NUM_1",
            "56,430.00": "NUM_2",
            "56,430": "NUM_2",
            "56,430.0": "NUM_2",
            "56430.00.0": "NUM_2",
            "56430.00.00": "NUM_2",
            "56430.00": "NUM_2",
            "8.25": "NUM_3",
            "21.75": "NUM_4"
        },
        "num_eq": [
            "56430.0 / ( NUM_4 - NUM_3 ) = x"
        ]
    },
    {
        "dataset": "alg514",
        "text": "For his long distance phone calls , John pays a 5 dollars monthly fee plus 25 cents per minute . Last month , John 's long distance bill was 12.02 dollars . For how many minutes was John billed ?",
        "equations": [
            "12.02 - 5.0 / ( 25.0 * 0.01 ) = x"
        ],
        "index": 3027,
        "solutions": [
            28.08
        ],
        "num_text": "For his long distance phone calls , John pays a NUM_1 dollars monthly fee plus NUM_2 cents per minute . Last month , John ' s long distance bill was NUM_3 dollars . For how many minutes was John billed ?",
        "num_index": {
            "5": "NUM_1",
            "5.0": "NUM_1",
            "5.00": "NUM_1",
            "25": "NUM_2",
            "25.0": "NUM_2",
            "25.00": "NUM_2",
            "12.02": "NUM_3"
        },
        "num_eq": [
            "NUM_3 - NUM_1 / ( NUM_2 * 0.01 ) = x"
        ]
    },
    {
        "dataset": "alg514",
        "text": "The first agency charges 20.25 dollars per day and 0.14 dollars per mile . The second agency charges 18.25 dollars per day and 0.22 dollars per mile . How many miles would you have to drive before the first agency is less expensive than the second ?",
        "equations": [
            "( 20.25 - 18.25 ) / ( 0.22 - 0.14 ) = x"
        ],
        "index": 3028,
        "solutions": [
            25.0
        ],
        "num_text": "The first agency charges NUM_1 dollars per day and NUM_2 dollars per mile . The second agency charges NUM_3 dollars per day and NUM_4 dollars per mile . How many miles would you have to drive before the first agency is less expensive than the second ?",
        "num_index": {
            "20.25": "NUM_1",
            "0.14": "NUM_2",
            "18.25": "NUM_3",
            "0.22": "NUM_4"
        },
        "num_eq": [
            "( NUM_1 - NUM_3 ) / ( NUM_4 - NUM_2 ) = x"
        ]
    },
    {
        "dataset": "alg514",
        "text": "The sum of 5 and a number is 20 . Find the number .",
        "equations": [
            "20.0 - 5.0 = x"
        ],
        "index": 3032,
        "solutions": [
            15.0
        ],
        "num_text": "The sum of NUM_1 and a number is NUM_2 . Find the number .",
        "num_index": {
            "5": "NUM_1",
            "5.0": "NUM_1",
            "5.00": "NUM_1",
            "20": "NUM_2",
            "20.0": "NUM_2",
            "20.00": "NUM_2"
        },
        "num_eq": [
            "NUM_2 - NUM_1 = x"
        ]
    },
    {
        "dataset": "alg514",
        "text": "0.5 of a number is 2 more than 0.25 of the number . Find the number .",
        "equations": [
            "2.0 / ( 0.5 - 0.25 ) = x"
        ],
        "index": 3040,
        "solutions": [
            8.0
        ],
        "num_text": "NUM_1 of a number is NUM_2 more than NUM_3 of the number . Find the number .",
        "num_index": {
            "0.5": "NUM_1",
            "2": "NUM_2",
            "2.0": "NUM_2",
            "2.00": "NUM_2",
            "0.25": "NUM_3"
        },
        "num_eq": [
            "NUM_2 / ( NUM_1 - NUM_3 ) = x"
        ]
    },
    {
        "dataset": "alg514",
        "text": "Mary began walking home from school , heading south at a rate of 4 miles per hour . Sharon left school at the same time heading north at 6 miles per hour . How long will it take for them to be 3 miles apart ?",
        "equations": [
            "3.0 / ( 4.0 + 6.0 ) = x"
        ],
        "index": 3046,
        "solutions": [
            0.3
        ],
        "num_text": "Mary began walking home from school , heading south at a rate of NUM_1 miles per hour . Sharon left school at the same time heading north at NUM_2 miles per hour . How long will it take for them to be NUM_3 miles apart ?",
        "num_index": {
            "4": "NUM_1",
            "4.0": "NUM_1",
            "4.00": "NUM_1",
            "6": "NUM_2",
            "6.0": "NUM_2",
            "6.00": "NUM_2",
            "3": "NUM_3",
            "3.0": "NUM_3",
            "3.00": "NUM_3"
        },
        "num_eq": [
            "NUM_3 / ( NUM_1 + NUM_2 ) = x"
        ]
    },
    {
        "dataset": "alg514",
        "text": "A mechanic charged 45 dollars an hour , plus 225 dollars for the parts . If the total bill was 450 dollars , how man hours did the job take ?",
        "equations": [
            "( 450.0 - 225.0 ) / 45.0 = x"
        ],
        "index": 3047,
        "solutions": [
            5.0
        ],
        "num_text": "A mechanic charged NUM_1 dollars an hour , plus NUM_2 dollars for the parts . If the total bill was NUM_3 dollars , how man hours did the job take ?",
        "num_index": {
            "45": "NUM_1",
            "45.0": "NUM_1",
            "45.00": "NUM_1",
            "225": "NUM_2",
            "225.0": "NUM_2",
            "225.00": "NUM_2",
            "450": "NUM_3",
            "450.0": "NUM_3",
            "450.00": "NUM_3"
        },
        "num_eq": [
            "( NUM_3 - NUM_2 ) / NUM_1 = x"
        ]
    },
    {
        "dataset": "alg514",
        "text": "The difference between 3 times a number and 1 is the same as twice a number . Find the number .",
        "equations": [
            "1.0 / ( 3.0 - 2.0 ) = x"
        ],
        "index": 3048,
        "solutions": [
            1.0
        ],
        "num_text": "The difference between NUM_1 times a number and NUM_2 is the same as twice a number . Find the number .",
        "num_index": {
            "3": "NUM_1",
            "3.0": "NUM_1",
            "3.00": "NUM_1",
            "1": "NUM_2",
            "1.0": "NUM_2",
            "1.00": "NUM_2"
        },
        "num_eq": [
            "NUM_2 / ( NUM_1 - 2.0 ) = x"
        ]
    },
    {
        "dataset": "alg514",
        "text": "Latoya purchased a prepaid phone card for 30 dollars . Long distance calls cost 16 cents a minute using this card . Latoya used her card only once to make a long distance call . If the remaining credit on her card is 26.48 dollars , how many minutes did her call last ?",
        "equations": [
            "( 30.0 - 26.48 ) / ( 16 * 0.01 ) = x"
        ],
        "index": 3051,
        "solutions": [
            22.0
        ],
        "num_text": "Latoya purchased a prepaid phone card for NUM_1 dollars . Long distance calls cost NUM_2 cents a minute using this card . Latoya used her card only once to make a long distance call . If the remaining credit on her card is NUM_3 dollars , how many minutes did her call last ?",
        "num_index": {
            "30": "NUM_1",
            "30.0": "NUM_1",
            "30.00": "NUM_1",
            "16": "NUM_2",
            "16.0": "NUM_2",
            "16.00": "NUM_2",
            "26.48": "NUM_3"
        },
        "num_eq": [
            "( NUM_1 - NUM_3 ) / ( NUM_2 * 0.01 ) = x"
        ]
    },
    {
        "dataset": "alg514",
        "text": "Sara and Jim both decided to save some money each week . Sara has already saved 4100 dollars , and she plans to save 10 dollars a week . Jim plans to save 15 dollars a week . In how many weeks will Jim and Sara have saved the same amount ?",
        "equations": [
            "4100.0 - ( 15.0 - 10.0 ) = x"
        ],
        "index": 3052,
        "solutions": [
            820.0
        ],
        "num_text": "Sara and Jim both decided to save some money each week . Sara has already saved NUM_1 dollars , and she plans to save NUM_2 dollars a week . Jim plans to save NUM_3 dollars a week . In how many weeks will Jim and Sara have saved the same amount ?",
        "num_index": {
            "4100": "NUM_1",
            "4100.0": "NUM_1",
            "4100.00": "NUM_1",
            "10": "NUM_2",
            "10.0": "NUM_2",
            "10.00": "NUM_2",
            "15": "NUM_3",
            "15.0": "NUM_3",
            "15.00": "NUM_3"
        },
        "num_eq": [
            "NUM_1 - ( NUM_3 - NUM_2 ) = x"
        ]
    },
    {
        "dataset": "alg514",
        "text": "About 4.9 million households had one brand of personal computers in 2001 . The use of these computers grew at an average rate of 0.275 million households a year . In 2001 , about 2.5 million households used another type of computer . The use of these computers grew at an average rate of 0.7 million households a year . How long will it take for the two types of computers to be in the same number of households ?",
        "equations": [
            "( 4900000 - 2500000 ) / ( 700000 - 275000 ) = x"
        ],
        "index": 3056,
        "solutions": [
            5.647
        ],
        "num_text": "About NUM_1 million households had NUM_2 brand of personal computers in NUM_3 . The use of these computers grew at an average rate of NUM_4 million households a year . In NUM_3 , about NUM_5 million households used another type of computer . The use of these computers grew at an average rate of NUM_6 million households a year . How long will it take for the NUM_7 types of computers to be in the same number of households ?",
        "num_index": {
            "4.9": "NUM_1",
            "1": "NUM_2",
            "1.0": "NUM_2",
            "1.00": "NUM_2",
            "2001": "NUM_3",
            "2001.0": "NUM_3",
            "2001.00": "NUM_3",
            "0.275": "NUM_4",
            "2.5": "NUM_5",
            "0.7": "NUM_6",
            "2": "NUM_7",
            "2.0": "NUM_7",
            "2.00": "NUM_7"
        },
        "num_eq": [
            "( 4900000 - 2500000 ) / ( 700000 - 275000 ) = x"
        ]
    },
    {
        "dataset": "alg514",
        "text": "A carpenter gave an estimate of 980 dollars to build a cover over a patio . His hourly rate is 28 dollars and he expects to need 560 dollars in materials . How many hours will the job take ?",
        "equations": [
            "( 980.0 - 560.0 ) / 28.0 = x"
        ],
        "index": 3059,
        "solutions": [
            15.0
        ],
        "num_text": "A carpenter gave an estimate of NUM_1 dollars to build a cover over a patio . His hourly rate is NUM_2 dollars and he expects to need NUM_3 dollars in materials . How many hours will the job take ?",
        "num_index": {
            "980": "NUM_1",
            "980.0": "NUM_1",
            "980.00": "NUM_1",
            "28": "NUM_2",
            "28.0": "NUM_2",
            "28.00": "NUM_2",
            "560": "NUM_3",
            "560.0": "NUM_3",
            "560.00": "NUM_3"
        },
        "num_eq": [
            "( NUM_1 - NUM_3 ) / NUM_2 = x"
        ]
    },
    {
        "dataset": "alg514",
        "text": "The length of a rectangular field is 24 meters . This is 3 meters less than twice the width . Find the width .",
        "equations": [
            "( 24.0 + 3.0 ) / 2.0 = x"
        ],
        "index": 3062,
        "solutions": [
            13.5
        ],
        "num_text": "The length of a rectangular field is NUM_1 meters . This is NUM_2 meters less than twice the width . Find the width .",
        "num_index": {
            "24": "NUM_1",
            "24.0": "NUM_1",
            "24.00": "NUM_1",
            "3": "NUM_2",
            "3.0": "NUM_2",
            "3.00": "NUM_2"
        },
        "num_eq": [
            "( NUM_1 + NUM_2 ) / 2.0 = x"
        ]
    },
    {
        "dataset": "alg514",
        "text": "Find a number such that 1 more than 0.6667 the number is 0.75 the number .",
        "equations": [
            "1.0 / ( 0.75 - 0.6667) = x"
        ],
        "index": 3065,
        "solutions": [
            12.0048
        ],
        "num_text": "Find a number such that NUM_1 more than NUM_2 the number is NUM_3 the number .",
        "num_index": {
            "1": "NUM_1",
            "1.0": "NUM_1",
            "1.00": "NUM_1",
            "0.6667": "NUM_2",
            "0.75": "NUM_3"
        },
        "num_eq": [
            "NUM_1 / ( NUM_3 - NUM_2 ) = x"
        ]
    },
    {
        "dataset": "alg514",
        "text": "The difference between 0.75 of a line and 0.4 of the same line is 28 centimeters . Find the length of the line .",
        "equations": [
            "28.0 / ( 0.75 - 0.4 ) = x"
        ],
        "index": 3071,
        "solutions": [
            80.0
        ],
        "num_text": "The difference between NUM_1 of a line and NUM_2 of the same line is NUM_3 centimeters . Find the length of the line .",
        "num_index": {
            "0.75": "NUM_1",
            "0.4": "NUM_2",
            "28": "NUM_3",
            "28.0": "NUM_3",
            "28.00": "NUM_3"
        },
        "num_eq": [
            "NUM_3 / ( NUM_1 - NUM_2 ) = x"
        ]
    },
    {
        "dataset": "alg514",
        "text": "Soft drinks are on sale at the grocery store for 2.99 dollars for a 12 pack . How much would each can of soft drink cost if purchased individually , in dollars ?",
        "equations": [
            "2.99 / 12.0 = x"
        ],
        "index": 3073,
        "solutions": [
            0.2491
        ],
        "num_text": "Soft drinks are on sale at the grocery store for NUM_1 dollars for a NUM_2 pack . How much would each can of soft drink cost if purchased individually , in dollars ?",
        "num_index": {
            "2.99": "NUM_1",
            "12": "NUM_2",
            "12.0": "NUM_2",
            "12.00": "NUM_2"
        },
        "num_eq": [
            "NUM_1 / NUM_2 = x"
        ]
    },
    {
        "dataset": "alg514",
        "text": "Steve invests in a circus production . The coast includes an overhead of 81,000 dollars , plus production costs of 7,000 dollars per performance . A sold-out performance brings in 16,000 dollars , Determine the number of sold-out performances , x , needed to break even .",
        "equations": [
            "81000.0 / ( 16000.0 - 7000.0 ) = x"
        ],
        "index": 3075,
        "solutions": [
            9.0
        ],
        "num_text": "Steve invests in a circus production . The coast includes an overhead of NUM_1 dollars , plus production costs of NUM_2 dollars per performance . A sold - out performance brings in NUM_3 dollars , Determine the number of sold - out performances , x , needed to break even .",
        "num_index": {
            "81,000": "NUM_1",
            "81,000.0": "NUM_1",
            "81,000.00": "NUM_1",
            "81000.0": "NUM_1",
            "81000.00": "NUM_1",
            "81000": "NUM_1",
            "7,000": "NUM_2",
            "7,000.0": "NUM_2",
            "7,000.00": "NUM_2",
            "7000.0": "NUM_2",
            "7000.00": "NUM_2",
            "7000": "NUM_2",
            "16,000": "NUM_3",
            "16,000.0": "NUM_3",
            "16,000.00": "NUM_3",
            "16000.0": "NUM_3",
            "16000.00": "NUM_3",
            "16000": "NUM_3"
        },
        "num_eq": [
            "NUM_1 / ( NUM_3 - NUM_2 ) = x"
        ]
    },
    {
        "dataset": "alg514",
        "text": "The value of a sport utility vehicle this year is 16,000 dollars , which is 0.8 of what its value was last year . Find the value of the vehicle last year .",
        "equations": [
            "16000.0 / 0.8 = x"
        ],
        "index": 3077,
        "solutions": [
            20000.0
        ],
        "num_text": "The value of a sport utility vehicle this year is NUM_1 dollars , which is NUM_2 of what its value was last year . Find the value of the vehicle last year .",
        "num_index": {
            "16,000": "NUM_1",
            "16,000.0": "NUM_1",
            "16,000.00": "NUM_1",
            "16000.0": "NUM_1",
            "16000.00": "NUM_1",
            "16000": "NUM_1",
            "0.8": "NUM_2"
        },
        "num_eq": [
            "NUM_1 / NUM_2 = x"
        ]
    },
    {
        "dataset": "alg514",
        "text": "You have 160 dollars and save 7 dollars per week . Your friend has 210 dollars and saves 5 dollars per week . After how many weeks will each of you have saved the same amount of money ?",
        "equations": [
            "( 210.0 - 160 ) / ( 7.0 - 5.0 )= x"
        ],
        "index": 3096,
        "solutions": [
            25.0
        ],
        "num_text": "You have NUM_1 dollars and save NUM_2 dollars per week . Your friend has NUM_3 dollars and saves NUM_4 dollars per week . After how many weeks will each of you have saved the same amount of money ?",
        "num_index": {
            "160": "NUM_1",
            "160.0": "NUM_1",
            "160.00": "NUM_1",
            "7": "NUM_2",
            "7.0": "NUM_2",
            "7.00": "NUM_2",
            "210": "NUM_3",
            "210.0": "NUM_3",
            "210.00": "NUM_3",
            "5": "NUM_4",
            "5.0": "NUM_4",
            "5.00": "NUM_4"
        },
        "num_eq": [
            "( NUM_3 - NUM_1 ) / ( NUM_2 - NUM_4 ) = x"
        ]
    },
    {
        "dataset": "alg514",
        "text": "If your gross pay is 450 dollars , while your net pay is 315 dollars , how much do you pay in taxes ? Assume that all tax dollars are not included in net pay .",
        "equations": [
            "450.0 - 315.0 = x"
        ],
        "index": 3098,
        "solutions": [
            135.0
        ],
        "num_text": "If your gross pay is NUM_1 dollars , while your net pay is NUM_2 dollars , how much do you pay in taxes ? Assume that all tax dollars are not included in net pay .",
        "num_index": {
            "450": "NUM_1",
            "450.0": "NUM_1",
            "450.00": "NUM_1",
            "315": "NUM_2",
            "315.0": "NUM_2",
            "315.00": "NUM_2"
        },
        "num_eq": [
            "NUM_1 - NUM_2 = x"
        ]
    },
    {
        "dataset": "alg514",
        "text": "If the product of 5 and a number is increased by 4 , the result is 19 . What is the number ?",
        "equations": [
            "( 19.0 - 4.0 ) / 5.0 = x"
        ],
        "index": 3109,
        "solutions": [
            3.0
        ],
        "num_text": "If the product of NUM_1 and a number is increased by NUM_2 , the result is NUM_3 . What is the number ?",
        "num_index": {
            "5": "NUM_1",
            "5.0": "NUM_1",
            "5.00": "NUM_1",
            "4": "NUM_2",
            "4.0": "NUM_2",
            "4.00": "NUM_2",
            "19": "NUM_3",
            "19.0": "NUM_3",
            "19.00": "NUM_3"
        },
        "num_eq": [
            "( NUM_3 - NUM_2 ) / NUM_1 = x"
        ]
    },
    {
        "dataset": "alg514",
        "text": "Three times a number is the same as the difference of twice the number and seven . Find the number .",
        "equations": [
            "- 7.0 / ( 3.0 - 2.0 ) = x"
        ],
        "index": 3115,
        "solutions": [
            -7.0
        ],
        "num_text": "NUM_1 times a number is the same as the difference of twice the number and NUM_2 . Find the number .",
        "num_index": {
            "3": "NUM_1",
            "3.0": "NUM_1",
            "3.00": "NUM_1",
            "7": "NUM_2",
            "7.0": "NUM_2",
            "7.00": "NUM_2"
        },
        "num_eq": [
            "- NUM_2 / ( NUM_1 - 2.0 ) = x"
        ]
    },
    {
        "dataset": "alg514",
        "text": "Student Council wants to rent a banquet hall for the prom . Caesar 's charges 800 dollars to rent the room and 30 dollars for each meal . Venus Hall charges 500 dollars to rent the room and 35 dollars for each meal . How many guests must attend the prom for the costs of the two halls to be the same ?",
        "equations": [
            "( 800.0 - 500.0 ) / ( 35.0 - 30.0 ) = x"
        ],
        "index": 3121,
        "solutions": [
            60.0
        ],
        "num_text": "Student Council wants to rent a banquet hall for the prom . Caesar ' s charges NUM_1 dollars to rent the room and NUM_2 dollars for each meal . Venus Hall charges NUM_3 dollars to rent the room and NUM_4 dollars for each meal . How many guests must attend the prom for the costs of the NUM_5 halls to be the same ?",
        "num_index": {
            "800": "NUM_1",
            "800.0": "NUM_1",
            "800.00": "NUM_1",
            "30": "NUM_2",
            "30.0": "NUM_2",
            "30.00": "NUM_2",
            "500": "NUM_3",
            "500.0": "NUM_3",
            "500.00": "NUM_3",
            "35": "NUM_4",
            "35.0": "NUM_4",
            "35.00": "NUM_4",
            "2": "NUM_5",
            "2.0": "NUM_5",
            "2.00": "NUM_5"
        },
        "num_eq": [
            "( NUM_1 - NUM_3 ) / ( NUM_4 - NUM_2 ) = x"
        ]
    },
    {
        "dataset": "alg514",
        "text": "The difference of 3 times a number and 5 is 40 . Find the number .",
        "equations": [
            "( 40.0 + 5.0 ) / 3.0 = x"
        ],
        "index": 3123,
        "solutions": [
            15.0
        ],
        "num_text": "The difference of NUM_1 times a number and NUM_2 is NUM_3 . Find the number .",
        "num_index": {
            "3": "NUM_1",
            "3.0": "NUM_1",
            "3.00": "NUM_1",
            "5": "NUM_2",
            "5.0": "NUM_2",
            "5.00": "NUM_2",
            "40": "NUM_3",
            "40.0": "NUM_3",
            "40.00": "NUM_3"
        },
        "num_eq": [
            "( NUM_3 + NUM_2 ) / NUM_1 = x"
        ]
    },
    {
        "dataset": "alg514",
        "text": "Think of a number , half it and the result is 9 . Find the number .",
        "equations": [
            "9.0 / 0.5 = x"
        ],
        "index": 3124,
        "solutions": [
            18.0
        ],
        "num_text": "Think of a number , half it and the result is NUM_1 . Find the number .",
        "num_index": {
            "9": "NUM_1",
            "9.0": "NUM_1",
            "9.00": "NUM_1"
        },
        "num_eq": [
            "NUM_1 / 0.5 = x"
        ]
    },
    {
        "dataset": "alg514",
        "text": "Rita received a 70 dollars gift card for a coffee store . She used it in buying some coffee that cost 8.58 dollars per pound . After buying the coffee , she had 35.68 dollars left on her card . How many pounds of coffee did she buy ?",
        "equations": [
            "(70.0 + 35.68 ) / 8.58 = x"
        ],
        "index": 3126,
        "solutions": [
            4.0
        ],
        "num_text": "Rita received a NUM_1 dollars gift card for a coffee store . She used it in buying some coffee that cost NUM_2 dollars per pound . After buying the coffee , she had NUM_3 dollars left on her card . How many pounds of coffee did she buy ?",
        "num_index": {
            "70": "NUM_1",
            "70.0": "NUM_1",
            "70.00": "NUM_1",
            "8.58": "NUM_2",
            "35.68": "NUM_3"
        },
        "num_eq": [
            "( NUM_1 + NUM_3 ) / NUM_2 = x"
        ]
    },
    {
        "dataset": "alg514",
        "text": "A textbook costs a bookstore 44 dollars , and the store sells it for 55 dollars . Find the amount of profit based on the selling price .",
        "equations": [
            "55.0 - 44.0 = x"
        ],
        "index": 3127,
        "solutions": [
            11.0
        ],
        "num_text": "A textbook costs a bookstore NUM_1 dollars , and the store sells it for NUM_2 dollars . Find the amount of profit based on the selling price .",
        "num_index": {
            "44": "NUM_1",
            "44.0": "NUM_1",
            "44.00": "NUM_1",
            "55": "NUM_2",
            "55.0": "NUM_2",
            "55.00": "NUM_2"
        },
        "num_eq": [
            "NUM_2 - NUM_1 = x"
        ]
    },
    {
        "dataset": "alg514",
        "text": "Suppose you invest 1,500 dollars in equipment to put pictures on T-shirts . You buy each T-shirt for 3 dollars . After you have placed the pictures on a shirt , you sell it for 20 dollars . How many T-shirts must you sell to break even ?",
        "equations": [
            "1500.0 / ( 20.0 - 3.0 ) = x"
        ],
        "index": 3129,
        "solutions": [
            88.23529
        ],
        "num_text": "Suppose you invest NUM_1 dollars in equipment to put pictures on T - shirts . You buy each T - shirt for NUM_2 dollars . After you have placed the pictures on a shirt , you sell it for NUM_3 dollars . How many T - shirts must you sell to break even ?",
        "num_index": {
            "1,500": "NUM_1",
            "1,500.0": "NUM_1",
            "1,500.00": "NUM_1",
            "1500.0": "NUM_1",
            "1500.00": "NUM_1",
            "1500": "NUM_1",
            "3": "NUM_2",
            "3.0": "NUM_2",
            "3.00": "NUM_2",
            "20": "NUM_3",
            "20.0": "NUM_3",
            "20.00": "NUM_3"
        },
        "num_eq": [
            "NUM_1 / ( NUM_3 - NUM_2 ) = x"
        ]
    },
    {
        "dataset": "alg514",
        "text": "A car traveled 715 kilometers in 11 hours . What was its average speed ?",
        "equations": [
            "715.0 / 11.0 = x"
        ],
        "index": 3131,
        "solutions": [
            65.0
        ],
        "num_text": "A car traveled NUM_1 kilometers in NUM_2 hours . What was its average speed ?",
        "num_index": {
            "715": "NUM_1",
            "715.0": "NUM_1",
            "715.00": "NUM_1",
            "11": "NUM_2",
            "11.0": "NUM_2",
            "11.00": "NUM_2"
        },
        "num_eq": [
            "NUM_1 / NUM_2 = x"
        ]
    },
    {
        "dataset": "alg514",
        "text": "A recipe calls for 2 cups of sugar . You find that you only have 0.3333 cups of sugar left . What fraction of the recipe can you make ?",
        "equations": [
            "0.3333 / 2.0 = x"
        ],
        "index": 3133,
        "solutions": [
            0.16665
        ],
        "num_text": "A recipe calls for NUM_1 cups of sugar . You find that you only have NUM_2 cups of sugar left . What fraction of the recipe can you make ?",
        "num_index": {
            "2": "NUM_1",
            "2.0": "NUM_1",
            "2.00": "NUM_1",
            "0.3333": "NUM_2"
        },
        "num_eq": [
            "NUM_2 / NUM_1 = x"
        ]
    },
    {
        "dataset": "alg514",
        "text": "36 more than the product of three and x is the same as 48 . Solve for x.",
        "equations": [
            "( 48.0 - 36.0 ) / 3.0 = x"
        ],
        "index": 3142,
        "solutions": [
            4.0
        ],
        "num_text": "NUM_1 more than the product of NUM_2 and x is the same as NUM_3 . Solve for x .",
        "num_index": {
            "36": "NUM_1",
            "36.0": "NUM_1",
            "36.00": "NUM_1",
            "3": "NUM_2",
            "3.0": "NUM_2",
            "3.00": "NUM_2",
            "48": "NUM_3",
            "48.0": "NUM_3",
            "48.00": "NUM_3"
        },
        "num_eq": [
            "( NUM_3 - NUM_1 ) / NUM_2 = x"
        ]
    },
    {
        "dataset": "alg514",
        "text": "Twice a number equals 25 less than triple the same number . What is the number ?",
        "equations": [
            "25.0 / ( 3.0 - 2.0 ) = x"
        ],
        "index": 3151,
        "solutions": [
            25.0
        ],
        "num_text": "Twice a number equals NUM_1 less than triple the same number . What is the number ?",
        "num_index": {
            "25": "NUM_1",
            "25.0": "NUM_1",
            "25.00": "NUM_1"
        },
        "num_eq": [
            "NUM_1 / ( 3.0 - 2.0 ) = x"
        ]
    },
    {
        "dataset": "alg514",
        "text": "Safety Rent-a-Car rents an intermediate-size car at a daily rate of 21.95 dollars plus 0.19 per mile . City Rentals rent an intermediate-size car for 18.95 dollars plus 0.21 per mile . For what milage is the cost the same ?",
        "equations": [
            "(21.95 - 18.95 ) / ( 0.21 - 0.19 ) = x"
        ],
        "index": 3153,
        "solutions": [
            150.0
        ],
        "num_text": "Safety Rent - a - Car rents an intermediate - size car at a daily rate of NUM_1 dollars plus NUM_2 per mile . City Rentals rent an intermediate - size car for NUM_3 dollars plus NUM_4 per mile . For what milage is the cost the same ?",
        "num_index": {
            "21.95": "NUM_1",
            "0.19": "NUM_2",
            "18.95": "NUM_3",
            "0.21": "NUM_4"
        },
        "num_eq": [
            "( NUM_1 - NUM_3 ) / ( NUM_4 - NUM_2 ) = x"
        ]
    },
    {
        "dataset": "alg514",
        "text": "A car rents for 30 dollars per day plus 18 cents per mile . You are on a budget of 75 dollars . What mileage would allow you to stay within your budget ?",
        "equations": [
            "( 75.0 - 30.0 ) / ( 18 * 0.01 ) = x"
        ],
        "index": 3154,
        "solutions": [
            250.0
        ],
        "num_text": "A car rents for NUM_1 dollars per day plus NUM_2 cents per mile . You are on a budget of NUM_3 dollars . What mileage would allow you to stay within your budget ?",
        "num_index": {
            "30": "NUM_1",
            "30.0": "NUM_1",
            "30.00": "NUM_1",
            "18": "NUM_2",
            "18.0": "NUM_2",
            "18.00": "NUM_2",
            "75": "NUM_3",
            "75.0": "NUM_3",
            "75.00": "NUM_3"
        },
        "num_eq": [
            "( NUM_3 - NUM_1 ) / ( NUM_2 * 0.01 ) = x"
        ]
    },
    {
        "dataset": "alg514",
        "text": "Find a number so that 10 less than 0.6667 the number is 0.25 the number .",
        "equations": [
            "10.0 / ( 0.6667 - 0.25 ) = x"
        ],
        "index": 3156,
        "solutions": [
            23.998
        ],
        "num_text": "Find a number so that NUM_1 less than NUM_2 the number is NUM_3 the number .",
        "num_index": {
            "10": "NUM_1",
            "10.0": "NUM_1",
            "10.00": "NUM_1",
            "0.6667": "NUM_2",
            "0.25": "NUM_3"
        },
        "num_eq": [
            "NUM_1 / ( NUM_2 - NUM_3 ) = x"
        ]
    },
    {
        "dataset": "alg514",
        "text": "Two airplanes left the same airport traveling in opposite directions . If one airplane averages 400 miles per hour and the other 250 miles per hour , how many hours will it take for the distance between them be 1625 miles ?",
        "equations": [
            "1625.0 / ( 250.0 + 400.0 ) = x"
        ],
        "index": 3157,
        "solutions": [
            2.5
        ],
        "num_text": "NUM_1 airplanes left the same airport traveling in opposite directions . If NUM_2 airplane averages NUM_3 miles per hour and the other NUM_4 miles per hour , how many hours will it take for the distance between them be NUM_5 miles ?",
        "num_index": {
            "2": "NUM_1",
            "2.0": "NUM_1",
            "2.00": "NUM_1",
            "1": "NUM_2",
            "1.0": "NUM_2",
            "1.00": "NUM_2",
            "400": "NUM_3",
            "400.0": "NUM_3",
            "400.00": "NUM_3",
            "250": "NUM_4",
            "250.0": "NUM_4",
            "250.00": "NUM_4",
            "1625": "NUM_5",
            "1625.0": "NUM_5",
            "1625.00": "NUM_5"
        },
        "num_eq": [
            "NUM_5 / ( NUM_4 + NUM_3 ) = x"
        ]
    },
    {
        "dataset": "alg514",
        "text": "At the carnival , tickets for the rides are 0.75 dollars each , or you can buy an armband for 15 dollars and ride unlimited for one night . At how many rides does the armband cost the same as buying individual tickets ?",
        "equations": [
            "15.0 / 0.75 = x"
        ],
        "index": 3161,
        "solutions": [
            20.0
        ],
        "num_text": "At the carnival , tickets for the rides are NUM_1 dollars each , or you can buy an armband for NUM_2 dollars and ride unlimited for NUM_3 night . At how many rides does the armband cost the same as buying individual tickets ?",
        "num_index": {
            "0.75": "NUM_1",
            "15": "NUM_2",
            "15.0": "NUM_2",
            "15.00": "NUM_2",
            "1": "NUM_3",
            "1.0": "NUM_3",
            "1.00": "NUM_3"
        },
        "num_eq": [
            "NUM_2 / NUM_1 = x"
        ]
    },
    {
        "dataset": "alg514",
        "text": "Juliet has a choice between receiving an 1800 dollars monthly salary from Furniture by Design or a base salary of 1600 dollars and a 4 % commission on the amount of furniture she sells during the month . For what amount of sales will the 2 choices be equal ?",
        "equations": [
            "( 1800.0 - 1600.0 ) / ( 4 * 0.01 ) = x"
        ],
        "index": 3167,
        "solutions": [
            5000.0
        ],
        "num_text": "Juliet has a choice between receiving an NUM_1 dollars monthly salary from Furniture by Design or a base salary of NUM_2 dollars and a NUM_3 % commission on the amount of furniture she sells during the month . For what amount of sales will the NUM_4 choices be equal ?",
        "num_index": {
            "1800": "NUM_1",
            "1800.0": "NUM_1",
            "1800.00": "NUM_1",
            "1600": "NUM_2",
            "1600.0": "NUM_2",
            "1600.00": "NUM_2",
            "4": "NUM_3",
            "4.0": "NUM_3",
            "4.00": "NUM_3",
            "2": "NUM_4",
            "2.0": "NUM_4",
            "2.00": "NUM_4"
        },
        "num_eq": [
            "( NUM_1 - NUM_2 ) / ( NUM_3 * 0.01 ) = x"
        ]
    },
    {
        "dataset": "alg514",
        "text": "Safety Rent A Truck costs 41.95 dollars plus 0.29 dollars per mile . City Rentals rents the truck for 38.95 dollars plus 0.31 dollars per mile . For what mileage are the costs the same ?",
        "equations": [
            "( 41.95 - 38.95 ) /  ( 0.31 - 0.29 ) = x"
        ],
        "index": 3168,
        "solutions": [
            150.0
        ],
        "num_text": "Safety Rent A Truck costs NUM_1 dollars plus NUM_2 dollars per mile . City Rentals rents the truck for NUM_3 dollars plus NUM_4 dollars per mile . For what mileage are the costs the same ?",
        "num_index": {
            "41.95": "NUM_1",
            "0.29": "NUM_2",
            "38.95": "NUM_3",
            "0.31": "NUM_4"
        },
        "num_eq": [
            "( NUM_1 - NUM_3 ) / ( NUM_4 - NUM_2 ) = x"
        ]
    },
    {
        "dataset": "alg514",
        "text": "Sunshine Car Rentals rents a basic car at a daily rate of 17.99 dollars plus 0.18 per mile . City Rentals rents a basic car at 18.95 dollars plus 0.16 per mile . For what mileage is the cost the same ?",
        "equations": [
            "( 18.95 - 17.99) / ( 0.18 - 0.16 ) = x"
        ],
        "index": 3173,
        "solutions": [
            48.0
        ],
        "num_text": "Sunshine Car Rentals rents a basic car at a daily rate of NUM_1 dollars plus NUM_2 per mile . City Rentals rents a basic car at NUM_3 dollars plus NUM_4 per mile . For what mileage is the cost the same ?",
        "num_index": {
            "17.99": "NUM_1",
            "0.18": "NUM_2",
            "18.95": "NUM_3",
            "0.16": "NUM_4"
        },
        "num_eq": [
            "( NUM_3 - NUM_1 ) / ( NUM_2 - NUM_4 ) = x"
        ]
    },
    {
        "dataset": "alg514",
        "text": "Goran will rent a car for the weekend . He can choose 1 of 2 plans . The first plan has an initial fee of 65 dollars and costs an additional 0.40 dollars per mile driven . The second plan has no initial fee but costs 0.60 dollars per mile driven . How many miles would Goran need to drive for the 2 plans to cost the same ?",
        "equations": [
            "65.0 / ( 0.6 - 0.4 ) = x"
        ],
        "index": 3184,
        "solutions": [
            325.0
        ],
        "num_text": "Goran will rent a car for the weekend . He can choose NUM_1 of NUM_2 plans . The first plan has an initial fee of NUM_3 dollars and costs an additional NUM_4 dollars per mile driven . The second plan has no initial fee but costs NUM_5 dollars per mile driven . How many miles would Goran need to drive for the NUM_2 plans to cost the same ?",
        "num_index": {
            "1": "NUM_1",
            "1.0": "NUM_1",
            "1.00": "NUM_1",
            "2": "NUM_2",
            "2.0": "NUM_2",
            "2.00": "NUM_2",
            "65": "NUM_3",
            "65.0": "NUM_3",
            "65.00": "NUM_3",
            "0.40": "NUM_4",
            "0.4": "NUM_4",
            "0.60": "NUM_5",
            "0.6": "NUM_5"
        },
        "num_eq": [
            "NUM_3 / ( NUM_5 - NUM_4 ) = x"
        ]
    },
    {
        "dataset": "alg514",
        "text": "The selling price of a pair of pants is 34 dollars . If the store paid 8 dollars less for the pants , find the price that the store paid , in dollars .",
        "equations": [
            "34.0 - 8.0 = x"
        ],
        "index": 3190,
        "solutions": [
            26.0
        ],
        "num_text": "The selling price of a pair of pants is NUM_1 dollars . If the store paid NUM_2 dollars less for the pants , find the price that the store paid , in dollars .",
        "num_index": {
            "34": "NUM_1",
            "34.0": "NUM_1",
            "34.00": "NUM_1",
            "8": "NUM_2",
            "8.0": "NUM_2",
            "8.00": "NUM_2"
        },
        "num_eq": [
            "NUM_1 - NUM_2 = x"
        ]
    },
    {
        "dataset": "alg514",
        "text": "Tony planted a 4 foot tree . The tree grows at a rate of 5 feet every year . How many years will it take to be 29 feet ?",
        "equations": [
            "( 29.0 - 4.0 ) / 5.0 = x"
        ],
        "index": 3197,
        "solutions": [
            5.0
        ],
        "num_text": "Tony planted a NUM_1 foot tree . The tree grows at a rate of NUM_2 feet every year . How many years will it take to be NUM_3 feet ?",
        "num_index": {
            "4": "NUM_1",
            "4.0": "NUM_1",
            "4.00": "NUM_1",
            "5": "NUM_2",
            "5.0": "NUM_2",
            "5.00": "NUM_2",
            "29": "NUM_3",
            "29.0": "NUM_3",
            "29.00": "NUM_3"
        },
        "num_eq": [
            "( NUM_3 - NUM_1 ) / NUM_2 = x"
        ]
    },
    {
        "dataset": "alg514",
        "text": "If 120 lollipops cost 90 dollars , how much does 1 lollipop cost , in dollars ?",
        "equations": [
            "90.0 / 120.0 = x"
        ],
        "index": 3205,
        "solutions": [
            0.75
        ],
        "num_text": "If NUM_1 lollipops cost NUM_2 dollars , how much does NUM_3 lollipop cost , in dollars ?",
        "num_index": {
            "120": "NUM_1",
            "120.0": "NUM_1",
            "120.00": "NUM_1",
            "90": "NUM_2",
            "90.0": "NUM_2",
            "90.00": "NUM_2",
            "1": "NUM_3",
            "1.0": "NUM_3",
            "1.00": "NUM_3"
        },
        "num_eq": [
            "NUM_2 / NUM_1 = x"
        ]
    },
    {
        "dataset": "alg514",
        "text": "Your cell phone company offers two text-messaging plans . Plan A costs 0.25 dollars per text message , plus a monthly fee of 9 dollars . The other plan costs 0.40 dollars per text message with no monthly fee . For how many text messages will both plans cost the same amount ?",
        "equations": [
            "9.0 / ( 0.4 - 0.25 ) = x"
        ],
        "index": 3206,
        "solutions": [
            60.0
        ],
        "num_text": "Your cell phone company offers NUM_1 text - messaging plans . Plan A costs NUM_2 dollars per text message , plus a monthly fee of NUM_3 dollars . The other plan costs NUM_4 dollars per text message with no monthly fee . For how many text messages will both plans cost the same amount ?",
        "num_index": {
            "2": "NUM_1",
            "2.0": "NUM_1",
            "2.00": "NUM_1",
            "0.25": "NUM_2",
            "9": "NUM_3",
            "9.0": "NUM_3",
            "9.00": "NUM_3",
            "0.40": "NUM_4",
            "0.4": "NUM_4"
        },
        "num_eq": [
            "NUM_3 / ( NUM_4 - NUM_2 ) = x"
        ]
    },
    {
        "dataset": "alg514",
        "text": "Find the number whose double is 45 greater than its half ?",
        "equations": [
            "45.0 / ( 2.0 - 0.5 ) = x"
        ],
        "index": 3210,
        "solutions": [
            30.0
        ],
        "num_text": "Find the number whose double is NUM_1 greater than its half ?",
        "num_index": {
            "45": "NUM_1",
            "45.0": "NUM_1",
            "45.00": "NUM_1"
        },
        "num_eq": [
            "NUM_1 / ( 2.0 - 0.5 ) = x"
        ]
    },
    {
        "dataset": "alg514",
        "text": "1.3333 of a number is 4.82 , what is the number ?",
        "equations": [
            "4.82 / 1.3333 = x"
        ],
        "index": 3227,
        "solutions": [
            3.615
        ],
        "num_text": "NUM_1 of a number is NUM_2 , what is the number ?",
        "num_index": {
            "1.3333": "NUM_1",
            "4.82": "NUM_2"
        },
        "num_eq": [
            "NUM_2 / NUM_1 = x"
        ]
    },
    {
        "dataset": "alg514",
        "text": "A plane is using fuel at the rate of 9.5 gallons per hour and it has 6.3333 gallons left in its tank . How long can the plane continue to fly ?",
        "equations": [
            "6.3333 / 9.5 = x"
        ],
        "index": 3248,
        "solutions": [
            0.6667
        ],
        "num_text": "A plane is using fuel at the rate of NUM_1 gallons per hour and it has NUM_2 gallons left in its tank . How long can the plane continue to fly ?",
        "num_index": {
            "9.5": "NUM_1",
            "6.3333": "NUM_2"
        },
        "num_eq": [
            "NUM_2 / NUM_1 = x"
        ]
    },
    {
        "dataset": "alg514",
        "text": "Mitch is buying candy bars for his friends . He wants to give 2 bars to each friend , and he wants to have 10 spare bars . He can afford to buy 24 candy bars . How many friends can he treat ?",
        "equations": [
            "( 24.0 - 10.0 ) / 2.0 = x"
        ],
        "index": 3250,
        "solutions": [
            7.0
        ],
        "num_text": "Mitch is buying candy bars for his friends . He wants to give NUM_1 bars to each friend , and he wants to have NUM_2 spare bars . He can afford to buy NUM_3 candy bars . How many friends can he treat ?",
        "num_index": {
            "2": "NUM_1",
            "2.0": "NUM_1",
            "2.00": "NUM_1",
            "10": "NUM_2",
            "10.0": "NUM_2",
            "10.00": "NUM_2",
            "24": "NUM_3",
            "24.0": "NUM_3",
            "24.00": "NUM_3"
        },
        "num_eq": [
            "( NUM_3 - NUM_2 ) / NUM_1 = x"
        ]
    },
    {
        "dataset": "alg514",
        "text": "A car rents for 30 dollars per day plus 23 cents per mile . You are on a daily budget of 76 dollars . What mileage can you go and stay within your budget ?",
        "equations": [
            "( 76.0 - 30.0 ) / ( 23 * 0.01 ) = x"
        ],
        "index": 3254,
        "solutions": [
            200.0
        ],
        "num_text": "A car rents for NUM_1 dollars per day plus NUM_2 cents per mile . You are on a daily budget of NUM_3 dollars . What mileage can you go and stay within your budget ?",
        "num_index": {
            "30": "NUM_1",
            "30.0": "NUM_1",
            "30.00": "NUM_1",
            "23": "NUM_2",
            "23.0": "NUM_2",
            "23.00": "NUM_2",
            "76": "NUM_3",
            "76.0": "NUM_3",
            "76.00": "NUM_3"
        },
        "num_eq": [
            "( NUM_3 - NUM_1 ) / ( NUM_2 * 0.01 ) = x"
        ]
    },
    {
        "dataset": "alg514",
        "text": "A small publishing company is planning to publish a new book . The production costs will include one-time fixed costs and variable costs . The one-time fixed costs will amount to 35,630 dollars . The variable costs will be 11.50 dollars per book . The publisher will sell the finished product to bookstores at a price of 20.25 dollars per book . How many books must the publisher print and sell so that the production costs will equal the money obtained from sales ?",
        "equations": [
            "35630.0 / ( 20.25 - 11.5 ) = x"
        ],
        "index": 3279,
        "solutions": [
            4072.0
        ],
        "num_text": "A small publishing company is planning to publish a new book . The production costs will include one - time fixed costs and variable costs . The one - time fixed costs will amount to NUM_1 dollars . The variable costs will be NUM_2 dollars per book . The publisher will sell the finished product to bookstores at a price of NUM_3 dollars per book . How many books must the publisher print and sell so that the production costs will equal the money obtained from sales ?",
        "num_index": {
            "35,630": "NUM_1",
            "35,630.0": "NUM_1",
            "35,630.00": "NUM_1",
            "35630.0": "NUM_1",
            "35630.00": "NUM_1",
            "35630": "NUM_1",
            "11.50": "NUM_2",
            "11.5": "NUM_2",
            "20.25": "NUM_3"
        },
        "num_eq": [
            "NUM_1 / ( NUM_3 - NUM_2 ) = x"
        ]
    },
    {
        "dataset": "alg514",
        "text": "17 is 4 less than 8 times a number . Find the number .",
        "equations": [
            "( 17.0 - 4.0 ) / 8.0 = x"
        ],
        "index": 3283,
        "solutions": [
            2.625
        ],
        "num_text": "NUM_1 is NUM_2 less than NUM_3 times a number . Find the number .",
        "num_index": {
            "17": "NUM_1",
            "17.0": "NUM_1",
            "17.00": "NUM_1",
            "4": "NUM_2",
            "4.0": "NUM_2",
            "4.00": "NUM_2",
            "8": "NUM_3",
            "8.0": "NUM_3",
            "8.00": "NUM_3"
        },
        "num_eq": [
            "( NUM_1 - NUM_2 ) / NUM_3 = x"
        ]
    },
    {
        "dataset": "alg514",
        "text": "The sum of 38 and twice a number is 124 . Find the number .",
        "equations": [
            "( 124.0 - 38.0 ) / 2.0"
        ],
        "index": 3288,
        "solutions": [
            43.0
        ],
        "num_text": "The sum of NUM_1 and twice a number is NUM_2 . Find the number .",
        "num_index": {
            "38": "NUM_1",
            "38.0": "NUM_1",
            "38.00": "NUM_1",
            "124": "NUM_2",
            "124.0": "NUM_2",
            "124.00": "NUM_2"
        },
        "num_eq": [
            "( NUM_2 - NUM_1 ) / 2.0"
        ]
    },
    {
        "dataset": "alg514",
        "text": "Jordan 's salary is 1250 dollars a month plus a 5 % commission on all of his sales . What must the amount of his sales be , in dollars , for him to earn at least 1500 dollars each month ?",
        "equations": [
            "( 1500.0 - 1250.0 ) / ( 5 * 0.01 ) = x"
        ],
        "index": 3292,
        "solutions": [
            5000.0
        ],
        "num_text": "Jordan ' s salary is NUM_1 dollars a month plus a NUM_2 % commission on all of his sales . What must the amount of his sales be , in dollars , for him to earn at least NUM_3 dollars each month ?",
        "num_index": {
            "1250": "NUM_1",
            "1250.0": "NUM_1",
            "1250.00": "NUM_1",
            "5": "NUM_2",
            "5.0": "NUM_2",
            "5.00": "NUM_2",
            "1500": "NUM_3",
            "1500.0": "NUM_3",
            "1500.00": "NUM_3"
        },
        "num_eq": [
            "( NUM_3 - NUM_1 ) / ( NUM_2 * 0.01 ) = x"
        ]
    },
    {
        "dataset": "alg514",
        "text": "For his long distance phone service Milan pays a 2 dollars monthly fee plus 12 cents per minute . Last month , Milan 's long distance bill was 23.36 dollars . For how many minutes was Milan billed for ?",
        "equations": [
            "( 23.36 - 2.0 ) / ( 12.0 * 0.01 ) = x"
        ],
        "index": 3311,
        "solutions": [
            178.0
        ],
        "num_text": "For his long distance phone service Milan pays a NUM_1 dollars monthly fee plus NUM_2 cents per minute . Last month , Milan ' s long distance bill was NUM_3 dollars . For how many minutes was Milan billed for ?",
        "num_index": {
            "2": "NUM_1",
            "2.0": "NUM_1",
            "2.00": "NUM_1",
            "12": "NUM_2",
            "12.0": "NUM_2",
            "12.00": "NUM_2",
            "23.36": "NUM_3"
        },
        "num_eq": [
            "( NUM_3 - NUM_1 ) / ( NUM_2 * 0.01 ) = x"
        ]
    },
    {
        "dataset": "alg514",
        "text": "A car rents for 50 dollars a day plus 20 cents a mile . You are on a daily budget of 88 dollars . What maximum mileage will allow you to stay within your budget ?",
        "equations": [
            "( 88.0 - 50.0 ) / ( 20.0 * 0.01 ) = x"
        ],
        "index": 3318,
        "solutions": [
            190.0
        ],
        "num_text": "A car rents for NUM_1 dollars a day plus NUM_2 cents a mile . You are on a daily budget of NUM_3 dollars . What maximum mileage will allow you to stay within your budget ?",
        "num_index": {
            "50": "NUM_1",
            "50.0": "NUM_1",
            "50.00": "NUM_1",
            "20": "NUM_2",
            "20.0": "NUM_2",
            "20.00": "NUM_2",
            "88": "NUM_3",
            "88.0": "NUM_3",
            "88.00": "NUM_3"
        },
        "num_eq": [
            "( NUM_3 - NUM_1 ) / ( NUM_2 * 0.01 ) = x"
        ]
    },
    {
        "dataset": "alg514",
        "text": "Twice a number increased by 5 is 17 . Find the number .",
        "equations": [
            "( 17.0 - 5.0 ) / 2.0 = x"
        ],
        "index": 3323,
        "solutions": [
            6.0
        ],
        "num_text": "Twice a number increased by NUM_1 is NUM_2 . Find the number .",
        "num_index": {
            "5": "NUM_1",
            "5.0": "NUM_1",
            "5.00": "NUM_1",
            "17": "NUM_2",
            "17.0": "NUM_2",
            "17.00": "NUM_2"
        },
        "num_eq": [
            "( NUM_2 - NUM_1 ) / 2.0 = x"
        ]
    },
    {
        "dataset": "alg514",
        "text": "It took me 6 minutes to walk 500 meters . How fast was I travelling ?",
        "equations": [
            "500.0 / 6.0 = x"
        ],
        "index": 3336,
        "solutions": [
            83.33333333
        ],
        "num_text": "It took me NUM_1 minutes to walk NUM_2 meters . How fast was I travelling ?",
        "num_index": {
            "6": "NUM_1",
            "6.0": "NUM_1",
            "6.00": "NUM_1",
            "500": "NUM_2",
            "500.0": "NUM_2",
            "500.00": "NUM_2"
        },
        "num_eq": [
            "NUM_2 / NUM_1 = x"
        ]
    },
    {
        "dataset": "alg514",
        "text": "Customers of a phone company can choose between 2 service plans for long distance calls . The first plan has a 22 dollars monthly fee and charges an additional 0.13 dollars for each minute of calls . The second plan has an 8 dollars monthly fee and charges an additional 0.18 dollars for each minute of calls . For how many minutes of calls will the costs of the two plans be equal ?",
        "equations": [
            "( 22.0 - 8.0 ) / ( 0.18 - 0.13 ) = x"
        ],
        "index": 3345,
        "solutions": [
            280.0
        ],
        "num_text": "Customers of a phone company can choose between NUM_1 service plans for long distance calls . The first plan has a NUM_2 dollars monthly fee and charges an additional NUM_3 dollars for each minute of calls . The second plan has an NUM_4 dollars monthly fee and charges an additional NUM_5 dollars for each minute of calls . For how many minutes of calls will the costs of the NUM_1 plans be equal ?",
        "num_index": {
            "2": "NUM_1",
            "2.0": "NUM_1",
            "2.00": "NUM_1",
            "22": "NUM_2",
            "22.0": "NUM_2",
            "22.00": "NUM_2",
            "0.13": "NUM_3",
            "8": "NUM_4",
            "8.0": "NUM_4",
            "8.00": "NUM_4",
            "0.18": "NUM_5"
        },
        "num_eq": [
            "( NUM_2 - NUM_4 ) / ( NUM_5 - NUM_3 ) = x"
        ]
    },
    {
        "dataset": "alg514",
        "text": "There are 7066 known nesting pairs of bald eagles in the lower 48 states today . This is 6649 more pairs than in 1963 . How many nesting pairs of bald eagles were there in the lower 48 states in 1963 ?",
        "equations": [
            "7066.0 - 6649.0 = x"
        ],
        "index": 3348,
        "solutions": [
            417.0
        ],
        "num_text": "There are NUM_1 known nesting pairs of bald eagles in the lower NUM_2 states today . This is NUM_3 more pairs than in NUM_4 . How many nesting pairs of bald eagles were there in the lower NUM_2 states in NUM_4 ?",
        "num_index": {
            "7066": "NUM_1",
            "7066.0": "NUM_1",
            "7066.00": "NUM_1",
            "48": "NUM_2",
            "48.0": "NUM_2",
            "48.00": "NUM_2",
            "6649": "NUM_3",
            "6649.0": "NUM_3",
            "6649.00": "NUM_3",
            "1963": "NUM_4",
            "1963.0": "NUM_4",
            "1963.00": "NUM_4"
        },
        "num_eq": [
            "NUM_1 - NUM_3 = x"
        ]
    },
    {
        "dataset": "alg514",
        "text": "If 6 is subtracted from three times a number , the difference is twice the number . What is the number ?",
        "equations": [
            "6.0 / ( 3.0 - 2.0 ) = x"
        ],
        "index": 3351,
        "solutions": [
            6.0
        ],
        "num_text": "If NUM_1 is subtracted from NUM_2 times a number , the difference is twice the number . What is the number ?",
        "num_index": {
            "6": "NUM_1",
            "6.0": "NUM_1",
            "6.00": "NUM_1",
            "3": "NUM_2",
            "3.0": "NUM_2",
            "3.00": "NUM_2"
        },
        "num_eq": [
            "NUM_1 / ( NUM_2 - 2.0 ) = x"
        ]
    },
    {
        "dataset": "alg514",
        "text": "When 4 times the number is added to 7 times the number the result is 55 . What is the number ?",
        "equations": [
            "55.0 / ( 4.0 + 7.0 ) = x"
        ],
        "index": 3363,
        "solutions": [
            5.0
        ],
        "num_text": "When NUM_1 times the number is added to NUM_2 times the number the result is NUM_3 . What is the number ?",
        "num_index": {
            "4": "NUM_1",
            "4.0": "NUM_1",
            "4.00": "NUM_1",
            "7": "NUM_2",
            "7.0": "NUM_2",
            "7.00": "NUM_2",
            "55": "NUM_3",
            "55.0": "NUM_3",
            "55.00": "NUM_3"
        },
        "num_eq": [
            "NUM_3 / ( NUM_1 + NUM_2 ) = x"
        ]
    },
    {
        "dataset": "alg514",
        "text": "A water flow restrictor has reduced the flow of water to 2 gallons per minute . This amount is 1 gallon per minute less than 0.6 the original flow rate . Find the original rate in gallons per minute .",
        "equations": [
            "( 2.0 + 1.0 ) / 0.6 = x"
        ],
        "index": 3368,
        "solutions": [
            5.0
        ],
        "num_text": "A water flow restrictor has reduced the flow of water to NUM_1 gallons per minute . This amount is NUM_2 gallon per minute less than NUM_3 the original flow rate . Find the original rate in gallons per minute .",
        "num_index": {
            "2": "NUM_1",
            "2.0": "NUM_1",
            "2.00": "NUM_1",
            "1": "NUM_2",
            "1.0": "NUM_2",
            "1.00": "NUM_2",
            "0.6": "NUM_3"
        },
        "num_eq": [
            "( NUM_1 + NUM_2 ) / NUM_3 = x"
        ]
    },
    {
        "dataset": "alg514",
        "text": "The tallest player on the basketball team is 77.75 inches tall . This is 9.5 inches taller than the shortest player . How tall is the shortest player , in inches ?",
        "equations": [
            "77.75 - 9.5 = x"
        ],
        "index": 3369,
        "solutions": [
            68.25
        ],
        "num_text": "The tallest player on the basketball team is NUM_1 inches tall . This is NUM_2 inches taller than the shortest player . How tall is the shortest player , in inches ?",
        "num_index": {
            "77.75": "NUM_1",
            "9.5": "NUM_2"
        },
        "num_eq": [
            "NUM_1 - NUM_2 = x"
        ]
    },
    {
        "dataset": "alg514",
        "text": "A physician 's assistant measures a child and finds that his height is 41.5 inches . At his last visit to the doctor 's office , the child was 38.5 inches tall . How much did the child grow , in inches ?",
        "equations": [
            "41.5 - 38.5 = x"
        ],
        "index": 3370,
        "solutions": [
            3.0
        ],
        "num_text": "A physician ' s assistant measures a child and finds that his height is NUM_1 inches . At his last visit to the doctor ' s office , the child was NUM_2 inches tall . How much did the child grow , in inches ?",
        "num_index": {
            "41.5": "NUM_1",
            "38.5": "NUM_2"
        },
        "num_eq": [
            "NUM_1 - NUM_2 = x"
        ]
    },
    {
        "dataset": "alg514",
        "text": "An ice skating rink charges 5 dollars for admission and 2.50 dollars to rent skates . Jill can purchase a new pair of skates for 65 dollars . How many times would she need to go the rink to justify buying the skates rather than renting a pair ?",
        "equations": [
            "65.0 / 2.5 = x"
        ],
        "index": 3371,
        "solutions": [
            26.0
        ],
        "num_text": "An ice skating rink charges NUM_1 dollars for admission and NUM_2 dollars to rent skates . Jill can purchase a new pair of skates for NUM_3 dollars . How many times would she need to go the rink to justify buying the skates rather than renting a pair ?",
        "num_index": {
            "5": "NUM_1",
            "5.0": "NUM_1",
            "5.00": "NUM_1",
            "2.50": "NUM_2",
            "2.5": "NUM_2",
            "65": "NUM_3",
            "65.0": "NUM_3",
            "65.00": "NUM_3"
        },
        "num_eq": [
            "NUM_3 / NUM_2 = x"
        ]
    },
    {
        "dataset": "alg514",
        "text": "The difference between 2 times a number and -8 is -12 . Find the number .",
        "equations": [
            "( ( - 12.0 ) + ( - 8.0 ) ) / 2.0 = x"
        ],
        "index": 3374,
        "solutions": [
            -10.0
        ],
        "num_text": "The difference between NUM_1 times a number and - NUM_2 is - NUM_3 . Find the number .",
        "num_index": {
            "2": "NUM_1",
            "2.0": "NUM_1",
            "2.00": "NUM_1",
            "8": "NUM_2",
            "8.0": "NUM_2",
            "8.00": "NUM_2",
            "12": "NUM_3",
            "12.0": "NUM_3",
            "12.00": "NUM_3"
        },
        "num_eq": [
            "( ( - NUM_3 ) + ( - NUM_2 ) ) / NUM_1 = x"
        ]
    },
    {
        "dataset": "alg514",
        "text": "0.6667 of a number increased by 0.75 is 1.6667 , what is the number ?",
        "equations": [
            "( 1.6667 - 0.75 ) / 0.6667 = x"
        ],
        "index": 3375,
        "solutions": [
            1.375
        ],
        "num_text": "NUM_1 of a number increased by NUM_2 is NUM_3 , what is the number ?",
        "num_index": {
            "0.6667": "NUM_1",
            "0.75": "NUM_2",
            "1.6667": "NUM_3"
        },
        "num_eq": [
            "( NUM_3 - NUM_2 ) / NUM_1 = x"
        ]
    },
    {
        "dataset": "alg514",
        "text": "A car rented for 29 dollars per day plus 0.08 dollars per mile . Julia paid 46.12 dollars for a 1-day rental . How far did she drive , in miles ?",
        "equations": [
            "( 46.12 - 29.0 ) / 0.08 = x"
        ],
        "index": 3379,
        "solutions": [
            214.0
        ],
        "num_text": "A car rented for NUM_1 dollars per day plus NUM_2 dollars per mile . Julia paid NUM_3 dollars for a NUM_4 - day rental . How far did she drive , in miles ?",
        "num_index": {
            "29": "NUM_1",
            "29.0": "NUM_1",
            "29.00": "NUM_1",
            "0.08": "NUM_2",
            "46.12": "NUM_3",
            "1": "NUM_4",
            "1.0": "NUM_4",
            "1.00": "NUM_4"
        },
        "num_eq": [
            "( NUM_3 - NUM_1 ) / NUM_2 = x"
        ]
    },
    {
        "dataset": "alg514",
        "text": "The sum of 20 and a number is 30 .",
        "equations": [
            "30.0 - 20.0 = x"
        ],
        "index": 3382,
        "solutions": [
            10.0
        ],
        "num_text": "The sum of NUM_1 and a number is NUM_2 .",
        "num_index": {
            "20": "NUM_1",
            "20.0": "NUM_1",
            "20.00": "NUM_1",
            "30": "NUM_2",
            "30.0": "NUM_2",
            "30.00": "NUM_2"
        },
        "num_eq": [
            "NUM_2 - NUM_1 = x"
        ]
    },
    {
        "dataset": "alg514",
        "text": "You make candles and sell them for 15 dollars each . The material to make up to 20 candles costs 20 dollars . How many candles must you sell to have a profit of 85 dollars ?",
        "equations": [
            "( 85.0 + 20.0 ) / 15.0 = x"
        ],
        "index": 3391,
        "solutions": [
            7.0
        ],
        "num_text": "You make candles and sell them for NUM_1 dollars each . The material to make up to NUM_2 candles costs NUM_2 dollars . How many candles must you sell to have a profit of NUM_3 dollars ?",
        "num_index": {
            "15": "NUM_1",
            "15.0": "NUM_1",
            "15.00": "NUM_1",
            "20": "NUM_2",
            "20.0": "NUM_2",
            "20.00": "NUM_2",
            "85": "NUM_3",
            "85.0": "NUM_3",
            "85.00": "NUM_3"
        },
        "num_eq": [
            "( NUM_3 + NUM_2 ) / NUM_1 = x"
        ]
    }
]