[
    {
        "index": 0,
        "dataset": "ixl",
        "text": "There are 4 boxes of books in the storeroom. Each box has 2 books. How many books are there in all?",
        "equations": [
            "4 * 2 = x"
        ],
        "solutions": [
            ""
        ]
    },
    {
        "index": 1,
        "dataset": "ixl",
        "text": "A city has 4 parking spots on each block. How many parking spots are there on 5 blocks?",
        "equations": [
            "4 * 5 = x"
        ],
        "solutions": [
            ""
        ]
    },
    {
        "index": 2,
        "dataset": "ixl",
        "text": "A bagel factory produced 5 bags of bagels. There were 3 bagels in each bag. How many bagels did the factory produce?",
        "equations": [
            "5 * 3 = x"
        ],
        "solutions": [
            ""
        ]
    },
    {
        "index": 3,
        "dataset": "ixl",
        "text": "An apartment building has 4 floors. There are 3 apartments per floor. How many apartments are in the building?",
        "equations": [
            "4 * 3 = x"
        ],
        "solutions": [
            ""
        ]
    },
    {
        "index": 4,
        "dataset": "ixl",
        "text": "Riley's sticker collection fills 7 pages in her sticker book. There are 8 stickers on each page. How many stickers are in Riley's collection?",
        "equations": [
            "7 * 8 = x"
        ],
        "solutions": [
            ""
        ]
    },
    {
        "index": 5,
        "dataset": "ixl",
        "text": "A cook made 3 stacks of pancakes. There were 5 pancakes in each stack. How many pancakes were there in all?",
        "equations": [
            "3 * 5 = x"
        ],
        "solutions": [
            ""
        ]
    },
    {
        "index": 6,
        "dataset": "ixl",
        "text": "A city wants to plant 3 trees on each block. How many trees will the city need for 8 blocks?",
        "equations": [
            "3 * 8 = x"
        ],
        "solutions": [
            ""
        ]
    },
    {
        "index": 7,
        "dataset": "ixl",
        "text": "William bought 3 bags of bagels. Each bag had 2 bagels. How many bagels did William buy?",
        "equations": [
            "3 * 2 = x"
        ],
        "solutions": [
            ""
        ]
    },
    {
        "index": 8,
        "dataset": "ixl",
        "text": "Brian bought 3 bags of marbles. There were 7 marbles in each bag. How many marbles did Brian buy?",
        "equations": [
            "3 * 7 = x"
        ],
        "solutions": [
            ""
        ]
    },
    {
        "index": 9,
        "dataset": "ixl",
        "text": "A teacher has 2 boxes of chalk. Each box has 3 pieces of chalk. How many pieces of chalk does the teacher have?",
        "equations": [
            "2 * 3 = x"
        ],
        "solutions": [
            ""
        ]
    },
    {
        "index": 10,
        "dataset": "ixl",
        "text": "For a joke competition, 4 people each told 5 jokes. How many jokes were told in all?",
        "equations": [
            "4 * 5 = x"
        ],
        "solutions": [
            ""
        ]
    },
    {
        "index": 11,
        "dataset": "ixl",
        "text": "There are 5 photographers who take pictures for the city newspaper. For yesterday's issue, each photographer took 3 pictures. How many pictures were there in all?",
        "equations": [
            "5 * 3 = x"
        ],
        "solutions": [
            ""
        ]
    },
    {
        "index": 12,
        "dataset": "ixl",
        "text": "There are 2 rows of desks in Mr. Russell's classroom. There are 3 desks in each row. How many desks are there in all?",
        "equations": [
            "2 * 6 = x"
        ],
        "solutions": [
            ""
        ]
    },
    {
        "index": 13,
        "dataset": "ixl",
        "text": "At a local school, 6 students each wrote 5 letters to students in another country. How many letters were written in all?",
        "equations": [
            "6 * 5 = x"
        ],
        "solutions": [
            ""
        ]
    },
    {
        "index": 14,
        "dataset": "ixl",
        "text": "A hotel is 2 stories tall. There are 6 rooms per story. How many rooms are there in the hotel?",
        "equations": [
            "2 * 6 = x"
        ],
        "solutions": [
            ""
        ]
    },
    {
        "index": 15,
        "dataset": "ixl",
        "text": "Mike bought 9 packages of T-shirts. Each package contained 8 T-shirts. How many T-shirts did Mike buy in total?",
        "equations": [
            "9 * 8 = x"
        ],
        "solutions": [
            ""
        ]
    },
    {
        "index": 16,
        "dataset": "ixl",
        "text": "There are 7 students in the art club. Each student painted 6 paintings. How many paintings were there in all?",
        "equations": [
            "7 * 6 = x"
        ],
        "solutions": [
            ""
        ]
    },
    {
        "index": 17,
        "dataset": "ixl",
        "text": "A chef prepared 6 plates of shrimp. There were 5 shrimp on each plate. How many shrimp did the chef prepare?",
        "equations": [
            "6 * 5 = x"
        ],
        "solutions": [
            ""
        ]
    },
    {
        "index": 18,
        "dataset": "ixl",
        "text": "A city wants to replace 4 streetlights on each city block. How many new streetlights will the city need for 5 blocks?",
        "equations": [
            "4 * 5 = x"
        ],
        "solutions": [
            ""
        ]
    },
    {
        "index": 19,
        "dataset": "ixl",
        "text": "An aquarium has 8 tanks of sharks. Each tank has 9 sharks. How many sharks are there in the aquarium?",
        "equations": [
            "8 * 9 = x"
        ],
        "solutions": [
            ""
        ]
    },
    {
        "index": 20,
        "dataset": "ixl",
        "text": "A pet store has 2 tanks of tadpoles. There are 3 tadpoles in each tank. How many tadpoles does the pet store have in all?",
        "equations": [
            "2 * 3 = x"
        ],
        "solutions": [
            ""
        ]
    },
    {
        "index": 21,
        "dataset": "ixl",
        "text": "Ava's spelling quiz has 4 questions. Each question is worth 5 points. How many possible points are there on Ava's quiz?",
        "equations": [
            "4 * 5 = x"
        ],
        "solutions": [
            ""
        ]
    },
    {
        "index": 22,
        "dataset": "ixl",
        "text": "Wilfred went to the grocery store and bought 6 boxes of granola bars. There were 4 granola bars in each box. How many granola bars did Wilfred buy in all?",
        "equations": [
            "6 * 4 = x"
        ],
        "solutions": [
            ""
        ]
    },
    {
        "index": 23,
        "dataset": "ixl",
        "text": "Alana filled 8 bowls with strawberries. She put 7 strawberries in each bowl. How many strawberries did Alana use?",
        "equations": [
            "8 * 7 = x"
        ],
        "solutions": [
            ""
        ]
    },
    {
        "index": 24,
        "dataset": "ixl",
        "text": "A cookie factory produced 9 packages of cookies. There were 8 cookies in each package. How many cookies did the factory produce in all?",
        "equations": [
            "9 * 8 = x"
        ],
        "solutions": [
            ""
        ]
    },
    {
        "index": 25,
        "dataset": "ixl",
        "text": "A baker made 7 cakes. He cut each cake into 6 slices. How many slices of cake did the baker end up with?",
        "equations": [
            "7 * 6 = x"
        ],
        "solutions": [
            ""
        ]
    },
    {
        "index": 26,
        "dataset": "ixl",
        "text": "A roller coaster at an amusement park has 8 cars, and 4 people can ride in each car. How many people can ride the roller coaster at the same time?",
        "equations": [
            "8 * 4 = x"
        ],
        "solutions": [
            ""
        ]
    },
    {
        "index": 27,
        "dataset": "ixl",
        "text": "Sidney bought 8 boxes of chocolates. There were 5 chocolates in each box. How many chocolates did Sidney buy?",
        "equations": [
            "8 * 5 = x"
        ],
        "solutions": [
            ""
        ]
    },
    {
        "index": 28,
        "dataset": "ixl",
        "text": "There are 3 poets who write for a literary magazine. For an upcoming issue, each poet wrote 5 poems. How many poems are there in all?",
        "equations": [
            "3 * 5 = x"
        ],
        "solutions": [
            ""
        ]
    },
    {
        "index": 29,
        "dataset": "ixl",
        "text": "A carpet store has 4 commercials every hour on a local television station. How many commercials will the store have in 2 hours?",
        "equations": [
            "4 * 2 = x"
        ],
        "solutions": [
            ""
        ]
    },
    {
        "index": 30,
        "dataset": "ixl",
        "text": "There are 4 rows of seats in the classroom. Each row has 3 seats. How many seats are there in all?",
        "equations": [
            "4 * 3 = x"
        ],
        "solutions": [
            ""
        ]
    },
    {
        "index": 31,
        "dataset": "ixl",
        "text": "There are 3 students in the art club. Each student painted 4 paintings. How many paintings were there in all?",
        "equations": [
            "3 * 4 = x"
        ],
        "solutions": [
            ""
        ]
    },
    {
        "index": 32,
        "dataset": "ixl",
        "text": "A city has 2 parking spots on each block. How many parking spots are there on 5 blocks?",
        "equations": [
            "2 * 5 = x"
        ],
        "solutions": [
            ""
        ]
    },
    {
        "index": 33,
        "dataset": "ixl",
        "text": "There are 4 people on each relay race team. Each person runs 5 laps. How many laps long is the relay race?",
        "equations": [
            "4 * 5 = x"
        ],
        "solutions": [
            ""
        ]
    },
    {
        "index": 34,
        "dataset": "ixl",
        "text": "A city wants to replace 9 streetlights on each city block. How many new streetlights will the city need for 7 blocks?",
        "equations": [
            "9 * 7 = x"
        ],
        "solutions": [
            ""
        ]
    },
    {
        "index": 35,
        "dataset": "ixl",
        "text": "Nathan bought 8 bags of potatoes. There were 2 potatoes in each bag. How many potatoes did Nathan buy?",
        "equations": [
            "8 * 2 = x"
        ],
        "solutions": [
            ""
        ]
    },
    {
        "index": 36,
        "dataset": "ixl",
        "text": "Kelly bought 6 bags of candy. There were 5 pieces of candy in each bag. How many pieces of candy did Kelly buy?",
        "equations": [
            "6 * 5 = x"
        ],
        "solutions": [
            ""
        ]
    },
    {
        "index": 37,
        "dataset": "ixl",
        "text": "Walter bought 4 packages of paper towels. There were 3 rolls in each package. How many rolls of paper towels did Walter buy?",
        "equations": [
            "4 * 3 = x"
        ],
        "solutions": [
            ""
        ]
    },
    {
        "index": 38,
        "dataset": "ixl",
        "text": "A mint factory puts 4 mints in each box. How many mints will the factory need to fill 3 boxes?",
        "equations": [
            "4 * 3 = x"
        ],
        "solutions": [
            ""
        ]
    },
    {
        "index": 39,
        "dataset": "ixl",
        "text": "There are 4 students in the poetry club. Last year, each student wrote 5 poems. How many poems did the students in the club write in all?",
        "equations": [
            "4 * 5 = x"
        ],
        "solutions": [
            ""
        ]
    },
    {
        "index": 40,
        "dataset": "ixl",
        "text": "Britney filled 5 plates with cookies. She put 4 cookies on each plate. How many cookies did Britney use?",
        "equations": [
            "5 * 4 = x"
        ],
        "solutions": [
            ""
        ]
    },
    {
        "index": 41,
        "dataset": "ixl",
        "text": "At a ski resort, the ski lift has 9 chairs, and 2 skiers can ride in each chair. How many skiers can ride the ski lift at the same time?",
        "equations": [
            "9 * 2 = x"
        ],
        "solutions": [
            ""
        ]
    },
    {
        "index": 42,
        "dataset": "ixl",
        "text": "A sporting goods factory puts 5 playground balls in each shipment. How many playground balls will there be in 7 shipments?",
        "equations": [
            "5 * 7 = x"
        ],
        "solutions": [
            ""
        ]
    },
    {
        "index": 43,
        "dataset": "ixl",
        "text": "Jodie climbed 4 flights of stairs. There were 8 steps in each flight. How many steps did Jodie climb?",
        "equations": [
            "4 * 8 = x"
        ],
        "solutions": [
            ""
        ]
    }
]