[
    {
        "dataset": "land",
        "text": "Ricky went to an exhibition. He bought four white boards and three black boards. How many boards did Ricky buy?",
        "index": 1,
        "equations": [
            "4 + 3 = x"
        ],
        "solutions": [
            "7"
        ]
    },
    {
        "dataset": "land",
        "text": "A zoo has 11 black deer and 8 brown deer. How many deer are there in all?",
        "index": 2,
        "equations": [
            "11 + 8 = x"
        ],
        "solutions": [
            "19"
        ]
    },
    {
        "dataset": "land",
        "text": "Nelson and Nick are roommates at the summer camp. Since they are at a swimming camp, it is very important to drink plenty of juice. Nelson brought 3 cans of juice to camp. Nick brought 4 cans of juice. How many cans of juice did they bring all together?",
        "index": 3,
        "equations": [
            "3 + 4 = x"
        ],
        "solutions": [
            "7"
        ]
    },
    {
        "dataset": "land",
        "text": "Julie has five ribbons, if she gives two ribbons to her friend then how many ribbons does Julie have left?",
        "index": 4,
        "equations": [
            "5 - 2 = x"
        ],
        "solutions": [
            "3"
        ]
    },
    {
        "dataset": "land",
        "text": "Mandy and Steve bought 9 purple lilies and 5 white daisies. How many flowers did they buy in all?",
        "index": 5,
        "equations": [
            "9 + 5 = x"
        ],
        "solutions": [
            "14"
        ]
    },
    {
        "dataset": "land",
        "text": "Andre and Joseph counted 8 results from teenagers. Later, they counted 8 more results from teenagers. How many results from teenagers did they count in all?",
        "index": 6,
        "equations": [
            "8 + 8 = x"
        ],
        "solutions": [
            "16"
        ]
    },
    {
        "dataset": "land",
        "text": "James bought 10 unicorns at the mall. Jasmine bought 6 unicorns at a garage sale. How many unicorns did they buy in all?",
        "index": 7,
        "equations": [
            "10 + 6 = x"
        ],
        "solutions": [
            "16"
        ]
    },
    {
        "dataset": "land",
        "text": "James bought 10 unicorns at the mall. Jasmine bought 6 unicorns at a garage sale. How many unicorns did they buy in all?",
        "index": 8,
        "equations": [
            "6 + 4 = x"
        ],
        "solutions": [
            "10"
        ]
    },
    {
        "dataset": "land",
        "text": "There are two black cars and two white cars in the garage. Find the number of cars in the garage ?",
        "index": 9,
        "equations": [
            "2 + 2 = x"
        ],
        "solutions": [
            "4"
        ]
    },
    {
        "dataset": "land",
        "text": "Jack has five elder sisters and three younger sisters. Find the number of sisters Jack has?",
        "index": 10,
        "equations": [
            "5 + 3 = x"
        ],
        "solutions": [
            "8"
        ]
    },
    {
        "dataset": "land",
        "text": "Reese\u2019s family loves ice hockey. Reese and his brother John collect pucks. Reese found 9 pucks and John found 6 picks. How many more pucks did Reese find more than John?",
        "index": 11,
        "equations": [
            "9 - 6 = x"
        ],
        "solutions": [
            "3"
        ]
    },
    {
        "dataset": "land",
        "text": "Brooke travels the country with her horses. She always takes 2 horses to her riding competitions. She have 4 of other horses in the meadow. How many horses does Brooke own?",
        "index": 12,
        "equations": [
            "2 + 4 = x"
        ],
        "solutions": [
            "6"
        ]
    },
    {
        "dataset": "land",
        "text": "Jennifer runs two penguin farms. She currently has 8 penguins on Meadows farm. She plans to move 5 of those penguins to her other farm. How many penguins will be left at  Meadows farm when those 5 penguins leave?",
        "index": 13,
        "equations": [
            "8 - 5 = x"
        ],
        "solutions": [
            "3"
        ]
    },
    {
        "dataset": "land",
        "text": "Hanna and Brice are collecting sea shells. Brice collects 8 shells and Hanna collects 5 sea shells. How many sea shells did they collect altogether?",
        "index": 14,
        "equations": [
            "8 + 5 = x"
        ],
        "solutions": [
            "13"
        ]
    },
    {
        "dataset": "land",
        "text": "Kevin was given 17 bags of jelly beans. He gives his friend Raymond 5 bags of jelly beans. How bags of jelly beans does he have left?",
        "index": 15,
        "equations": [
            "17 - 5 = x"
        ],
        "solutions": [
            "12"
        ]
    },
    {
        "dataset": "land",
        "text": "eff read 12 books. Nathan, read 5 books. How many more books did Jeff read?",
        "index": 16,
        "equations": [
            "12 - 5 = x"
        ],
        "solutions": [
            "7"
        ]
    },
    {
        "dataset": "land",
        "text": "The basketball team had a great game. Mike scored 12 points. James scored 6 points. How many points did Mike and James score together?",
        "index": 17,
        "equations": [
            "12 + 6 = x"
        ],
        "solutions": [
            "18"
        ]
    },
    {
        "dataset": "land",
        "text": "Matthew and Cameron were diving in the pool. Matthew\u2019s dad threw 19 pennies in the pool. Cameron found 6 pennies and Matthew found 7 pennies. How many pennies were still on the bottom of the pool?",
        "index": 18,
        "equations": [
            "19 - ( 7 + 6 ) = x"
        ],
        "solutions": [
            "6"
        ]
    },
    {
        "dataset": "land",
        "text": "There are eight buses in a school. If three are sent to pick up children, how many are left?",
        "index": 19,
        "equations": [
            "8 - 3 = x"
        ],
        "solutions": [
            "5"
        ]
    },
    {
        "dataset": "land",
        "text": "Rhonda has 16 candy hearts. She gives 7 candy hearts to her friend Bridget. How many candy hearts does she have left?",
        "index": 20,
        "equations": [
            "16 - 7 = x"
        ],
        "solutions": [
            "9"
        ]
    },
    {
        "dataset": "land",
        "text": "Bill plays the drums for his band. They record an album. Bill plays in 14 of their 18 songs. How many songs does Bill not play in?",
        "index": 21,
        "equations": [
            "18 - 14 = x"
        ],
        "solutions": [
            "4"
        ]
    },
    {
        "dataset": "land",
        "text": "Jason's team had 12 points before Jason scored  5 points. How many points does Jason\u2019s team have now?",
        "index": 22,
        "equations": [
            "12 + 5 = x"
        ],
        "solutions": [
            "17"
        ]
    },
    {
        "dataset": "land",
        "text": "Chrissy has a bubble blowing contest with Sharon. Chrissy blows a 20 inch bubble. Sharon blows a 9 inch bubble. How many more inches bigger is Chrissy\u2019s bubble ?",
        "index": 23,
        "equations": [
            "20 - 9 = x"
        ],
        "solutions": [
            "11"
        ]
    },
    {
        "dataset": "land",
        "text": "Shawda has 18 ketchup packets and sits down to eat. She uses 6 Ketchup packets. How many Ketchup packets does she have left?",
        "index": 24,
        "equations": [
            "18 - 6 = x"
        ],
        "solutions": [
            "12"
        ]
    },
    {
        "dataset": "land",
        "text": "Rosie\u2019s team has 6 baseball bats. Mike joins the team and he brings 2 bats with him. How many bats does Rosie\u2019s team have now?",
        "index": 25,
        "equations": [
            "6 + 2 = x"
        ],
        "solutions": [
            "8"
        ]
    },
    {
        "dataset": "land",
        "text": "Sam is a video game addict. He has 14 video games. He gives 8 of the games to his friend Terry. In exchange, Terry gives Sam 4 games. How many games does Sam have now?",
        "index": 26,
        "equations": [
            "14 - 8 + 4 = x"
        ],
        "solutions": [
            "10"
        ]
    },
    {
        "dataset": "land",
        "text": "Wanda collects hair ties. She has 12. Wanda goes and buys 8 new hair ties. How many hair ties does she have now?",
        "index": 27,
        "equations": [
            "12 + 8 = x"
        ],
        "solutions": [
            "20"
        ]
    },
    {
        "dataset": "land",
        "text": "Cheryl is in charge of collecting all the balls at the end of soccer practice. The team has 19 balls. She has already collected 12 balls. All the other balls are in the ball bag. How many balls should be in the ball bag?",
        "index": 28,
        "equations": [
            "19 - 12 = x"
        ],
        "solutions": [
            "7"
        ]
    },
    {
        "dataset": "land",
        "text": "Stu\u2019s father is a stamp collector. He likes to buy 3 new stamps each purchase. If Stu\u2019s father has 12 stamps, after his next purchase, how many stamps will he have?",
        "index": 29,
        "equations": [
            "12 + 3 = x"
        ],
        "solutions": [
            "15"
        ]
    },
    {
        "dataset": "land",
        "text": "Geri had 20 chocolates. He gave 4 to his brother. Now how many chocolates does Geri have?",
        "index": 30,
        "equations": [
            "20 - 4 = x"
        ],
        "solutions": [
            "16"
        ]
    },
    {
        "dataset": "land",
        "text": "There are 44 students in the Clarisse\u2019s classroom. Today 13 students are absent. How many students are in the classroom today?",
        "index": 31,
        "equations": [
            "44 - 13 = x"
        ],
        "solutions": [
            "31"
        ]
    },
    {
        "dataset": "land",
        "text": "A shopkeeper had 30 notebooks, he sold 23 notebooks. How many notebooks does he have left over?",
        "index": 32,
        "equations": [
            "30 - 23 = x"
        ],
        "solutions": [
            "7"
        ]
    },
    {
        "dataset": "land",
        "text": "Delis had $26.00. She bought a bag costing $15.00. How much money does she have?",
        "index": 33,
        "equations": [
            "26 - 15 = x"
        ],
        "solutions": [
            "11"
        ]
    },
    {
        "dataset": "land",
        "text": "There are 12 pairs of glasses. If 2 pairs of glasses are broken, how many pairs will be left?",
        "index": 34,
        "equations": [
            "12 - 2 = x"
        ],
        "solutions": [
            "10"
        ]
    },
    {
        "dataset": "land",
        "text": "Jessica bought 6 jars. She gave 4 jars to her mother. How many jars are left?",
        "index": 35,
        "equations": [
            "6 - 4 = x"
        ],
        "solutions": [
            "2"
        ]
    },
    {
        "dataset": "land",
        "text": "Amy had 9 cheese cups. He used 3 cheese cups. How many cheese cups are left?",
        "index": 36,
        "equations": [
            "9 - 3 = x"
        ],
        "solutions": [
            "6"
        ]
    },
    {
        "dataset": "land",
        "text": "Keisha bought 5 liters of milk. If she used 3 liters of milk, how much milk does she have left?",
        "index": 37,
        "equations": [
            "5 - 3 = x"
        ],
        "solutions": [
            "2"
        ]
    },
    {
        "dataset": "land",
        "text": "Rosie has a flower shop. She has 80 roses in her shop. She sold 53 roses. How many roses are left?",
        "index": 38,
        "equations": [
            "80 - 53 = x"
        ],
        "solutions": [
            "27"
        ]
    },
    {
        "dataset": "land",
        "text": "Nomi has $5,600 in his bank account. He takes out $2,400 from his bank account. How much money is left?",
        "index": 39,
        "equations": [
            "5600 - 2400 = x"
        ],
        "solutions": [
            "3200"
        ]
    },
    {
        "dataset": "land",
        "text": "Phil ate 6 buns yesterday. He ate 1 bun during his morning meal and 3 buns during his evening meal. How many buns did he eat during lunch?",
        "index": 40,
        "equations": [
            "6 - ( 1 + 3 ) = x"
        ],
        "solutions": [
            "2"
        ]
    },
    {
        "dataset": "land",
        "text": "James had 16 jeans. He donated 12 jeans. How many jeans were left?",
        "index": 41,
        "equations": [
            "16 -12 = x"
        ],
        "solutions": [
            "4"
        ]
    },
    {
        "dataset": "land",
        "text": "Minnie had 108 pictures. She lost 5 pictures. How many pictures does she have remaining?",
        "index": 42,
        "equations": [
            "108 - 5 = x"
        ],
        "solutions": [
            "103"
        ]
    },
    {
        "dataset": "land",
        "text": "Tommy had 12 oranges. If he eats 2 oranges , then how many oranges will he have left",
        "index": 43,
        "equations": [
            "12 - 2 = x"
        ],
        "solutions": [
            "10"
        ]
    },
    {
        "index": 0,
        "dataset": "land",
        "text": "Selina gives 5 toys to her daughter. Her daughter throws 2 toys away. How many toys does Selina\u2019s daughter have now?",
        "equations": [
            "5-2 = x"
        ],
        "solutions": [
            "3"
        ]
    },
    {
        "index": 1,
        "dataset": "land",
        "text": "Julian solves 33 math problems on Thursday. If he started with 50 math problems then how many math problems are left?",
        "equations": [
            "50-33 = x"
        ],
        "solutions": [
            "17"
        ]
    },
    {
        "index": 2,
        "dataset": "land",
        "text": "Jolly has 13 calligraphy pens and Perry has 7 calligraphy pens. How many more calligraphy pens does Jolly have than Perry?",
        "equations": [
            "13-7 = x"
        ],
        "solutions": [
            "6"
        ]
    },
    {
        "index": 3,
        "dataset": "land",
        "text": "Vicky had a box of cards. He had 7 cards in this box. If his daughter dropped 2 cards on the floor, how many cards are there in the box?",
        "equations": [
            "7-2 = x"
        ],
        "solutions": [
            "5"
        ]
    },
    {
        "index": 4,
        "dataset": "land",
        "text": "Nancy had 4 liters of oil in her bike. The bike used 2 liters of oil. How much oil does she have?",
        "equations": [
            "4-2 = x"
        ],
        "solutions": [
            "2"
        ]
    },
    {
        "index": 5,
        "dataset": "land",
        "text": "Mason has a bundle of rope with a length of 13 meters. He cuts out 3 meters of rope from this bundle. How much rope is left?",
        "equations": [
            "13 -3 = x"
        ],
        "solutions": [
            "10"
        ]
    },
    {
        "index": 6,
        "dataset": "land",
        "text": "Robert had $50.00. He bought a cake worth $42.00. How much money does he have left?",
        "equations": [
            "50-42 = x"
        ],
        "solutions": [
            "8"
        ]
    },
    {
        "index": 7,
        "dataset": "land",
        "text": "There are 14 clothes to wash. If Lucy washes 7 clothes, how many cloths are left to wash?",
        "equations": [
            "14-7 = x"
        ],
        "solutions": [
            "7"
        ]
    },
    {
        "index": 8,
        "dataset": "land",
        "text": "Shenty\u2019s mother made 6 sandwiches. Shenty ate 5 of them. How many sandwiches are left?",
        "equations": [
            "6-5 = x"
        ],
        "solutions": [
            "1"
        ]
    },
    {
        "index": 9,
        "dataset": "land",
        "text": "Franklin gives Terry 5 candles from a box of 30. How many candles are left in the box?",
        "equations": [
            "30 - 5 = x"
        ],
        "solutions": [
            "25"
        ]
    },
    {
        "index": 10,
        "dataset": "land",
        "text": "The shop has books 75 people bought 30 How many are left ?",
        "equations": [
            "75-30 = x"
        ],
        "solutions": [
            "45"
        ]
    },
    {
        "index": 11,
        "dataset": "land",
        "text": "The shop has bikes 35 people bought 20, How many are left ?",
        "equations": [
            "35-20 = x"
        ],
        "solutions": [
            "15"
        ]
    },
    {
        "index": 12,
        "dataset": "land",
        "text": "The shop has cars 85 people bought 50 How many are left ?",
        "equations": [
            "85-50 = x"
        ],
        "solutions": [
            "35"
        ]
    },
    {
        "index": 13,
        "dataset": "land",
        "text": "The shop has chicken 55 people bought 25 How many are left ?",
        "equations": [
            "55-25 = x"
        ],
        "solutions": [
            "30"
        ]
    },
    {
        "index": 14,
        "dataset": "land",
        "text": "The shop has shoes 25 people bought 10 How many are left ?",
        "equations": [
            "25-10 = x"
        ],
        "solutions": [
            "15"
        ]
    },
    {
        "index": 15,
        "dataset": "land",
        "text": "The shop has caps 15 people bought 5 How many are left ?",
        "equations": [
            "15-5 = x"
        ],
        "solutions": [
            "10"
        ]
    },
    {
        "index": 16,
        "dataset": "land",
        "text": "The shop has clocks  40 people bought 20 How many are left ?",
        "equations": [
            "40-20 = x"
        ],
        "solutions": [
            "20"
        ]
    },
    {
        "index": 17,
        "dataset": "land",
        "text": "The shop has flags  95 people bought 45 How many are left ?",
        "equations": [
            "95-45 = x"
        ],
        "solutions": [
            "50"
        ]
    },
    {
        "index": 18,
        "dataset": "land",
        "text": "The shop has flowers  90 people bought 80 How many are left ?",
        "equations": [
            "90-80 = x"
        ],
        "solutions": [
            "10"
        ]
    },
    {
        "index": 19,
        "dataset": "land",
        "text": "The shop has guns 95 people bought 40 How many are left ?",
        "equations": [
            "95-40 = x"
        ],
        "solutions": [
            "55"
        ]
    },
    {
        "index": 20,
        "dataset": "land",
        "text": "Summit is placing 80 books on a rack. If 20 are placed on a rack, how many are left?",
        "equations": [
            "80-20 = x"
        ],
        "solutions": [
            "60"
        ]
    },
    {
        "index": 21,
        "dataset": "land",
        "text": "Five birds are sitting in a tree. If 3 flew away, how many will be left?",
        "equations": [
            "5-3 = x"
        ],
        "solutions": [
            "2"
        ]
    },
    {
        "index": 22,
        "dataset": "land",
        "text": "car has 10 liters of fuel. If 2 liters are consumed, how much fuel will be left in the car?",
        "equations": [
            "10-2 = x"
        ],
        "solutions": [
            "8"
        ]
    },
    {
        "index": 23,
        "dataset": "land",
        "text": "A milkman has to deliver milk to 14 houses. If he delivered the milk to 2 houses, how many are left?",
        "equations": [
            "14-2 = x"
        ],
        "solutions": [
            "12"
        ]
    },
    {
        "index": 24,
        "dataset": "land",
        "text": "Martin has 15 stickers. If he gave 7 to his friend, how many are left?",
        "equations": [
            "15-7 = x"
        ],
        "solutions": [
            "8"
        ]
    },
    {
        "index": 25,
        "dataset": "land",
        "text": "There are 10 flowers in a garden. If 5 were picked, how many are left?",
        "equations": [
            "10-5 = x"
        ],
        "solutions": [
            "5"
        ]
    },
    {
        "index": 26,
        "dataset": "land",
        "text": "Paul has 10 books. If he gave 5 books to his sister, how many are left?",
        "equations": [
            "10-5 = x"
        ],
        "solutions": [
            "5"
        ]
    },
    {
        "index": 27,
        "dataset": "land",
        "text": "A building is 25m high and another building is 10m high. What is the difference between their heights?",
        "equations": [
            "25-10 = x"
        ],
        "solutions": [
            "15"
        ]
    },
    {
        "index": 28,
        "dataset": "land",
        "text": "Piranha has 30 toys. Only 15 are still working. How many of them are broken?",
        "equations": [
            "30-15 = x"
        ],
        "solutions": [
            "15"
        ]
    },
    {
        "index": 29,
        "dataset": "land",
        "text": "There are 25 students present in a school. If 11 of them are on leave, how many students are present?",
        "equations": [
            "25-11 = x"
        ],
        "solutions": [
            "14"
        ]
    },
    {
        "index": 30,
        "dataset": "land",
        "text": "Yesterday, Lisa bought a pencil box. So her sister gave her 3 pencils. Her brother gave her 2 pencils more. How many pencils does she have now?",
        "equations": [
            "3+2 = x"
        ],
        "solutions": [
            "5"
        ]
    },
    {
        "index": 31,
        "dataset": "land",
        "text": "Rina had to count all of the blankets. The store had 1 blue blanket, 3 grey blankets, and 3 black blankets. How many blankets did the store have in all?",
        "equations": [
            "1+3+3 = x"
        ],
        "solutions": [
            "7"
        ]
    },
    {
        "index": 32,
        "dataset": "land",
        "text": "A pasta restaurant ordered 2 jars of tomato sauce, 1 jar of mushroom sauce, and 3 jars of garlic sauce. How many jars of sauce did the restaurant order in all?",
        "equations": [
            "2+1+3 = x"
        ],
        "solutions": [
            "6"
        ]
    },
    {
        "index": 33,
        "dataset": "land",
        "text": "At John's school, there are 2 new students in the Spanish class, 3 new students in the Chinese class, and 1 new student in the French class. How many new students are there in all the language classes?",
        "equations": [
            "2+3+1 = x"
        ],
        "solutions": [
            "6"
        ]
    },
    {
        "index": 34,
        "dataset": "land",
        "text": "Owen's house has 3 purple lenses, 3 red lenses, and 1 gold lens. How many lenses does the store have in all?",
        "equations": [
            "3+3+1 = x"
        ],
        "solutions": [
            "7"
        ]
    },
    {
        "index": 35,
        "dataset": "land",
        "text": "There were 2 red pushpins, 4 blue pushpins, and 3 yellow pushpins. How many pushpins were there in all?",
        "equations": [
            "2+4+3 = x"
        ],
        "solutions": [
            "9"
        ]
    },
    {
        "index": 36,
        "dataset": "land",
        "text": "A game table store sold 1 ping pong table, 2 football tables, and 2 bubble hockey games. How many game tables did the store sell in all?",
        "equations": [
            "1+2+2 = x"
        ],
        "solutions": [
            "5"
        ]
    },
    {
        "index": 37,
        "dataset": "land",
        "text": "The jewelry store in the mall has 3 silver bracelets, 2 gold bracelets, and 2 platinum bracelets. How many bracelets does the store have in all?",
        "equations": [
            "3+2+2 = x"
        ],
        "solutions": [
            "7"
        ]
    },
    {
        "index": 38,
        "dataset": "land",
        "text": "Tessa saw 5 dump trucks, 2 forklifts, and 2 bulldozers. How many construction vehicles did Tessa see at the construction site?",
        "equations": [
            "5+2+2 = x"
        ],
        "solutions": [
            "9"
        ]
    },
    {
        "index": 39,
        "dataset": "land",
        "text": "Riya played a trivia game and earned 2 points on the history questions. She earned 5 points for answering science questions and 6 points for answering sports questions. How many points did Riya score in all?",
        "equations": [
            "2+5+6 = x"
        ],
        "solutions": [
            "13"
        ]
    },
    {
        "index": 40,
        "dataset": "land",
        "text": "The manager of a furniture store ordered 5 tables, 4 chairs, and 3 benches. How many wooden things did the manager order in all?",
        "equations": [
            "5+4+3 = x"
        ],
        "solutions": [
            "12"
        ]
    },
    {
        "index": 41,
        "dataset": "land",
        "text": "Samya collected flowers in the park. She collected 2 yellow rose, 5 lilies, and 7 marigold. How many flowers did Samya collect in all?",
        "equations": [
            "2+5+7 = x"
        ],
        "solutions": [
            "14"
        ]
    },
    {
        "index": 42,
        "dataset": "land",
        "text": "Kallie went on a tour around India. First, she spent 7 days in Delhi and 2 days in Goa. Then she went to Mumbai for 1 day. How long was Kallie\u2019s tour?",
        "equations": [
            "7+2+1 = x"
        ],
        "solutions": [
            "10"
        ]
    },
    {
        "index": 43,
        "dataset": "land",
        "text": "Tom cleaned up the office and found 3 blue pens, 3 bags, and 6 Cds. How many things did Tom find in the office?",
        "equations": [
            "3+3+6 = x"
        ],
        "solutions": [
            "12"
        ]
    },
    {
        "index": 44,
        "dataset": "land",
        "text": "Derrick spent 7 days at horse camp, 1 day at soccer camp, and 1 day at music camp. How many total days did Derrick spend at camp?",
        "equations": [
            "7+1+1 = x"
        ],
        "solutions": [
            "9"
        ]
    },
    {
        "index": 45,
        "dataset": "land",
        "text": "Nate scored 3 points in the first round. He scored 3 points in the second round and 1 point in the third round. How many points did Nate score in all?",
        "equations": [
            "3+3+1 = x"
        ],
        "solutions": [
            "7"
        ]
    },
    {
        "index": 46,
        "dataset": "land",
        "text": "Watson collected 5 Canadian stamps, 6 American stamps and 9 Indian stamps. Find the total stamps collected by Watson.",
        "equations": [
            "5+6+9 = x"
        ],
        "solutions": [
            "20"
        ]
    },
    {
        "index": 47,
        "dataset": "land",
        "text": "There were 3 males, 12 females and 4 coaches. What is the total number of people on the field ?",
        "equations": [
            "3+12+4 = x"
        ],
        "solutions": [
            "19"
        ]
    },
    {
        "index": 48,
        "dataset": "land",
        "text": "Jacob planted 6 tomato trees, 8 pea trees, and 2 cherry trees. What is the total number of fruit trees that Jacob planted ?",
        "equations": [
            "6+8+2 = x"
        ],
        "solutions": [
            "16"
        ]
    },
    {
        "index": 49,
        "dataset": "land",
        "text": "Adam bought lollipops for $5, brownies for $6, and cakes for $3. What is the total amount that Adam spent?",
        "equations": [
            "5+6+3 = x"
        ],
        "solutions": [
            "14"
        ]
    },
    {
        "index": 50,
        "dataset": "land",
        "text": "In a public telephone booth 2 calls are made before noon and 3 calls are made after noon and 6 calls are made after evening. How many calls made ?",
        "equations": [
            "2+3+6 = x"
        ],
        "solutions": [
            "11"
        ]
    },
    {
        "index": 51,
        "dataset": "land",
        "text": "There are 10 boys and 11 girls. Find the number of students in this class ?",
        "equations": [
            "10+11 = x"
        ],
        "solutions": [
            "21"
        ]
    },
    {
        "index": 52,
        "dataset": "land",
        "text": "There are 2 pink blocks. 9 red blocks more are added. Then 5 yellow blocks more. How many are there total?",
        "equations": [
            "2+9+5 = x"
        ],
        "solutions": [
            "16"
        ]
    },
    {
        "index": 53,
        "dataset": "land",
        "text": "A group of 4 students collected a total of 12 pages of a notebook for recycling. If they each collected the same amount, how many pages did each student collect?",
        "equations": [
            "12/4 = x"
        ],
        "solutions": [
            "3"
        ]
    },
    {
        "index": 54,
        "dataset": "land",
        "text": "A teacher gave out 15 pencils to 3 students. Each student got the same number of pencils. How many pencils did each student get?",
        "equations": [
            "15/3 = x"
        ],
        "solutions": [
            "5"
        ]
    },
    {
        "index": 55,
        "dataset": "land",
        "text": "A shop keeper had 18 cups to display. He decided to display 3 rows with the same number of cups in each row. How many cups did he place in each row?",
        "equations": [
            "18/3 = x"
        ],
        "solutions": [
            "6"
        ]
    },
    {
        "index": 56,
        "dataset": "land",
        "text": "A gardener had 21 seeds to plant in pots. He decided to plant 7 seeds in each pot. How many pots did he plant?",
        "equations": [
            "21/7 = x"
        ],
        "solutions": [
            "3"
        ]
    },
    {
        "index": 57,
        "dataset": "land",
        "text": "A baker made 24 pastries and packed them in small boxes. Each box held 4 pastries. How many boxes of pastries did he create?",
        "equations": [
            "24/4 = x"
        ],
        "solutions": [
            "6"
        ]
    },
    {
        "index": 58,
        "dataset": "land",
        "text": "A class of 36 students was divided equally into teams for tennis. Each tennis team had 4 students. How many tennis teams were there?",
        "equations": [
            "36/4 = x"
        ],
        "solutions": [
            "9"
        ]
    },
    {
        "index": 59,
        "dataset": "land",
        "text": "John had 28 pieces of bone. He had 7 dogs to feed. Each animal was given equal number pieces. How many pieces of bones did each animal get?",
        "equations": [
            "28/7 = x"
        ],
        "solutions": [
            "4"
        ]
    },
    {
        "index": 60,
        "dataset": "land",
        "text": "A tour operator planned a trip for 108 tourists. He divided the tourists into 9 groups. How many tourist groups were made?",
        "equations": [
            "108/9 = x"
        ],
        "solutions": [
            "12"
        ]
    },
    {
        "index": 61,
        "dataset": "land",
        "text": "A librarian has 72 new reference books. She puts them on 4 shelves. She puts an equal number of books on each shelf. How many books are there on each shelf?",
        "equations": [
            "72/4 = x"
        ],
        "solutions": [
            "18"
        ]
    },
    {
        "index": 62,
        "dataset": "land",
        "text": "Jennie rode her bicycle 18 kilometers in the past 3 days. She covers the same distance every day. How many kilometers did Jennie ride her bicycle each day?",
        "equations": [
            "18/3 = x"
        ],
        "solutions": [
            "6"
        ]
    },
    {
        "index": 63,
        "dataset": "land",
        "text": "A garment store has 45 pink shirts for sale. The shirts are evenly divided into 9 bins. How many shirts are in each bin?",
        "equations": [
            "45/9 = x"
        ],
        "solutions": [
            "5"
        ]
    },
    {
        "index": 64,
        "dataset": "land",
        "text": "Shelly needs 8 meters of cloth to stitch a shirt. If Shelly has 64 meters of cloth, how many shirts can she stitch?",
        "equations": [
            "64/8 = x"
        ],
        "solutions": [
            "8"
        ]
    },
    {
        "index": 65,
        "dataset": "land",
        "text": "There are 132 people seated in the school auditorium for an assembly. There are 6 rows in the auditorium, how many seats are there in each row?",
        "equations": [
            "132/6 = x"
        ],
        "solutions": [
            "22"
        ]
    },
    {
        "index": 66,
        "dataset": "land",
        "text": "At a football field there are 12 players on each team. If there are 72 players on the field, how many teams will be formed?",
        "equations": [
            "72/12 = x"
        ],
        "solutions": [
            "6"
        ]
    },
    {
        "index": 67,
        "dataset": "land",
        "text": "Ms. Cedric bought a jar that contains 125 marbles. If she divides the marbles equally among 25 bags, how many marbles will be in each bag?",
        "equations": [
            "125/25 = x"
        ],
        "solutions": [
            "5"
        ]
    },
    {
        "index": 68,
        "dataset": "land",
        "text": "Andre bought 64 blueberries. He divided them equally into 8 bowls. How many blueberries did Andre put in each bowl?",
        "equations": [
            "64/8 = x"
        ],
        "solutions": [
            "8"
        ]
    },
    {
        "index": 69,
        "dataset": "land",
        "text": "Jenny is saving money to buy a new pair of shoes that cost $120. If she saves $6 each week, how many weeks will it take her to save enough money to buy the shoes?",
        "equations": [
            "120/6 = x"
        ],
        "solutions": [
            "20"
        ]
    },
    {
        "index": 70,
        "dataset": "land",
        "text": "Mr. Ariana has 36 tables in his classroom. There are 144 chairs. There is an equal number of chairs at each table. How many chairs are there around each table?",
        "equations": [
            "144/36 = x"
        ],
        "solutions": [
            "4"
        ]
    },
    {
        "index": 71,
        "dataset": "land",
        "text": "A florist has 81 roses. She plans to put 9 roses in each box. How many boxes can she fill?",
        "equations": [
            "81/9 = x"
        ],
        "solutions": [
            "9"
        ]
    },
    {
        "index": 72,
        "dataset": "land",
        "text": "Daisy has 9 cricket bats.  All 3 teams share team bats equally. How many bats does each team get?",
        "equations": [
            "9 / 3 = x"
        ],
        "solutions": [
            "3"
        ]
    },
    {
        "index": 73,
        "dataset": "land",
        "text": "Kevin has 28 mangoes. He puts 4 mangoes in a bag. How many bags can he fill?",
        "equations": [
            "28/4 = x"
        ],
        "solutions": [
            "7"
        ]
    },
    {
        "index": 74,
        "dataset": "land",
        "text": "Aggie plays 15 songs in her car. Each song takes 3 minutes to play. How long did it take Aggie to listen to all the songs?",
        "equations": [
            "15*3 = x"
        ],
        "solutions": [
            "45"
        ]
    },
    {
        "index": 75,
        "dataset": "land",
        "text": "Allie has 30 cherries which are divided evenly on 6 cakes. How many cherries are on each cake?",
        "equations": [
            "30/6 = x"
        ],
        "solutions": [
            "5"
        ]
    },
    {
        "index": 76,
        "dataset": "land",
        "text": "Barrie has 10 bottles of Pepsi stored in each box. How many total bottles of Pepsi are there in the 30 boxes?",
        "equations": [
            "10*30 = x"
        ],
        "solutions": [
            "300"
        ]
    },
    {
        "index": 77,
        "dataset": "land",
        "text": "There are 40 students and 240 oranges. The oranges are divided equally among the students. How many oranges does each student get?",
        "equations": [
            "240/40 = x"
        ],
        "solutions": [
            "6"
        ]
    },
    {
        "index": 78,
        "dataset": "land",
        "text": "45 people are going to a club. A taxi can carry 5 people. How many taxis do they need?",
        "equations": [
            "45/5 = x"
        ],
        "solutions": [
            "9"
        ]
    },
    {
        "index": 79,
        "dataset": "land",
        "text": "42 people are going to a restaurant. A table can seat 6 people. How many tables do they need?",
        "equations": [
            "42/6 = x"
        ],
        "solutions": [
            "7"
        ]
    },
    {
        "index": 80,
        "dataset": "land",
        "text": "35 people are going to a party. A taxi can carry 5 people. How many taxis do they need?",
        "equations": [
            "35/5 = x"
        ],
        "solutions": [
            "7"
        ]
    },
    {
        "index": 81,
        "dataset": "land",
        "text": "36 train cars are attached to the train. A train car can carry 6 people. How many train cars are needed?",
        "equations": [
            "36/6 = x"
        ],
        "solutions": [
            "6"
        ]
    },
    {
        "index": 82,
        "dataset": "land",
        "text": "18 people are going to watch a play. A ticket allows entry 6 people. How many tickets do they need?",
        "equations": [
            "18/6 = x"
        ],
        "solutions": [
            "3"
        ]
    },
    {
        "index": 83,
        "dataset": "land",
        "text": "14 people are going to the office. A cab can carry 2 people. How many cabs do they need?",
        "equations": [
            "14/2 = x"
        ],
        "solutions": [
            "7"
        ]
    },
    {
        "index": 84,
        "dataset": "land",
        "text": "49 people are going to the hotel. A tourist bus can carry 7 people. How many buses do they need?",
        "equations": [
            "49/7 = x"
        ],
        "solutions": [
            "7"
        ]
    },
    {
        "index": 85,
        "dataset": "land",
        "text": "12 friends are going to a concert. A box car can carry 3 friends. How many box cars do they need?",
        "equations": [
            "12/3 = x"
        ],
        "solutions": [
            "4"
        ]
    },
    {
        "index": 86,
        "dataset": "land",
        "text": "22 boys are going on an outing. A bike can carry 2 people. How many bikes do they need?",
        "equations": [
            "22/2 = x"
        ],
        "solutions": [
            "11"
        ]
    },
    {
        "index": 87,
        "dataset": "land",
        "text": "Anthony delivers 12 milk boxes 4 times a week. How many milk boxes did he deliver in a week?",
        "equations": [
            "12/4 = x"
        ],
        "solutions": [
            "3"
        ]
    },
    {
        "index": 88,
        "dataset": "land",
        "text": "Ben takes 15 minutes to completely walk around. How many minutes did he take to complete 5 circles around?",
        "equations": [
            "15/5 = x"
        ],
        "solutions": [
            "3"
        ]
    },
    {
        "index": 89,
        "dataset": "land",
        "text": "There are 20 bikes in the parking lot. If they are divided into 4 groups, how many bikes are there in each group?",
        "equations": [
            "20/4 = x"
        ],
        "solutions": [
            "5"
        ]
    },
    {
        "index": 90,
        "dataset": "land",
        "text": "Nancy\u2019s garden has 4 rows of roses with 8 roses in each row. How many roses are in her garden?",
        "equations": [
            "4*8 = x"
        ],
        "solutions": [
            "32"
        ]
    },
    {
        "index": 91,
        "dataset": "land",
        "text": "Karen bought 20 mangoes. She wants to divide them among 5 people. How many mangoes would each person get?",
        "equations": [
            "20/5 = x"
        ],
        "solutions": [
            "4"
        ]
    },
    {
        "index": 92,
        "dataset": "land",
        "text": "Benny has 60 roses. She divided an equal numbers of roses between 6 friends. How many roses does each friend get?",
        "equations": [
            "60/6 = x"
        ],
        "solutions": [
            "10"
        ]
    },
    {
        "index": 93,
        "dataset": "land",
        "text": "Lisa put 50 paper pins in her pin box. The box has 5 rows. If each row has the same number of paper pins, how many pins did Lisa put on each row?",
        "equations": [
            "50/5 = x"
        ],
        "solutions": [
            "10"
        ]
    },
    {
        "index": 94,
        "dataset": "land",
        "text": "Edward had 5 boxes of pens. Each box had 15 pens in it. How many pens did Edward have in total?",
        "equations": [
            "5*15 = x"
        ],
        "solutions": [
            "75"
        ]
    },
    {
        "index": 95,
        "dataset": "land",
        "text": "Anthony gets 36 new toy cars. If the toy cars come in packs of 4, how many packs of toy cars did Anthony get?",
        "equations": [
            "36/4 = x"
        ],
        "solutions": [
            "9"
        ]
    },
    {
        "index": 96,
        "dataset": "land",
        "text": "The wardrobe is full. If there are 20 shirts in 5 rows, how many shirts are in each row?",
        "equations": [
            "20/5 = x"
        ],
        "solutions": [
            "4"
        ]
    }
]