[
    {
        "index": 0,
        "dataset": "math-salamanders",
        "text": "Divide 15 children into teams of 3. How many teams?",
        "equations": [
            "15/3 = x"
        ],
        "solutions": [
            "5"
        ]
    },
    {
        "index": 1,
        "dataset": "math-salamanders",
        "text": "Share out 20 cards between 5 people. How many cards each?",
        "equations": [
            "20/5 = x"
        ],
        "solutions": [
            "4"
        ]
    },
    {
        "index": 2,
        "dataset": "math-salamanders",
        "text": "Divide 18 eggs into boxes of 6 eggs. How many boxes can I fill?",
        "equations": [
            "18/6 = x"
        ],
        "solutions": [
            "3"
        ]
    },
    {
        "index": 3,
        "dataset": "math-salamanders",
        "text": "Share 24 chocolates between 4 children. How many chocolates each?",
        "equations": [
            "24/4 = x"
        ],
        "solutions": [
            "6"
        ]
    },
    {
        "index": 4,
        "dataset": "math-salamanders",
        "text": "Divide 20 pencils into packs of 4.How many packets will I make?",
        "equations": [
            "20/4 = x"
        ],
        "solutions": [
            "5"
        ]
    },
    {
        "index": 5,
        "dataset": "math-salamanders",
        "text": "Share out 14 bones between 2 dogs. How many bones will each dog get?",
        "equations": [
            "14/2 = x"
        ],
        "solutions": [
            "7"
        ]
    },
    {
        "index": 6,
        "dataset": "math-salamanders",
        "text": "Share out 20 pencils equally between 5 pencil pots.How many pencils in each pot?",
        "equations": [
            "20/5 = x"
        ],
        "solutions": [
            "4"
        ]
    },
    {
        "index": 7,
        "dataset": "math-salamanders",
        "text": "Divide 24 children into teams of 4. How many teams will there be?",
        "equations": [
            "24/4 = x"
        ],
        "solutions": [
            "6"
        ]
    },
    {
        "index": 8,
        "dataset": "math-salamanders",
        "text": "Divide 30 calculators into packs of 10.How many packs will there be?",
        "equations": [
            "30/10 = x"
        ],
        "solutions": [
            "3"
        ]
    },
    {
        "index": 9,
        "dataset": "math-salamanders",
        "text": "Share out 27 fish equally between 3 aquariums.How many fish in each aquarium?",
        "equations": [
            "27/3 = x"
        ],
        "solutions": [
            "9"
        ]
    },
    {
        "index": 10,
        "dataset": "math-salamanders",
        "text": "Share out 21 passengers equally between 7 cars.How many passengers in each car?",
        "equations": [
            "21/7 = x"
        ],
        "solutions": [
            "3"
        ]
    },
    {
        "index": 11,
        "dataset": "math-salamanders",
        "text": "Divide 36 competitors equally between 9 events.How many competitors for each event?",
        "equations": [
            "36/9 = x"
        ],
        "solutions": [
            "4"
        ]
    },
    {
        "index": 12,
        "dataset": "math-salamanders",
        "text": "Sally plants 30 runner bean seeds in rows of 6.How many rows will there be?",
        "equations": [
            "30/6 = x"
        ],
        "solutions": [
            "5"
        ]
    },
    {
        "index": 13,
        "dataset": "math-salamanders",
        "text": "Newton needs to buy 40 raffle tickets. They come in packs of 5 tickets.  How many packs does he need?",
        "equations": [
            "40/5 = x"
        ],
        "solutions": [
            "8"
        ]
    },
    {
        "index": 14,
        "dataset": "math-salamanders",
        "text": "Frazer runs 3m in a minute. How long will it take him to run 12m at this speed?",
        "equations": [
            "12/3 = x"
        ],
        "solutions": [
            "4"
        ]
    },
    {
        "index": 15,
        "dataset": "math-salamanders",
        "text": "Captain shares out 36 snails equally between his 4 friends. How many snails will they each get?",
        "equations": [
            "36/4 = x"
        ],
        "solutions": [
            "9"
        ]
    },
    {
        "index": 16,
        "dataset": "math-salamanders",
        "text": "35 children get into teams of 7. How many teams will there be?",
        "equations": [
            "35/7 = x"
        ],
        "solutions": [
            "5"
        ]
    },
    {
        "index": 17,
        "dataset": "math-salamanders",
        "text": "Quadra eats 4 spiders a day. How long will it take him to eat 40 spiders?",
        "equations": [
            "4/40 = x"
        ],
        "solutions": [
            "10"
        ]
    },
    {
        "index": 18,
        "dataset": "math-salamanders",
        "text": "Tyger shares out 28 rubies equally between 2 chests.How many rubies in each chest?",
        "equations": [
            "28/2 = x"
        ],
        "solutions": [
            "14"
        ]
    },
    {
        "index": 19,
        "dataset": "math-salamanders",
        "text": "An episode of Salamander Safari takes 10 minutes.How many episodes could Sally watch in an hour?",
        "equations": [
            "60/10 = x"
        ],
        "solutions": [
            "6"
        ]
    },
    {
        "index": 20,
        "dataset": "math-salamanders",
        "text": "A pen costs $7. How many pens could I buy for $35?",
        "equations": [
            "35/7 = x"
        ],
        "solutions": [
            "5"
        ]
    },
    {
        "index": 21,
        "dataset": "math-salamanders",
        "text": "Frazer runs 3 meters in a minute. How long will it take him to run 27 meters at this speed?",
        "equations": [
            "27/3 = x"
        ],
        "solutions": [
            "9"
        ]
    },
    {
        "index": 22,
        "dataset": "math-salamanders",
        "text": "Quadra has 32 socks which he puts into pairs.How many pairs of socks can he make?",
        "equations": [
            "32/2 = x"
        ],
        "solutions": [
            "6"
        ]
    },
    {
        "index": 23,
        "dataset": "math-salamanders",
        "text": "A length of rope is 20m long.If I cut it into 10 equal length pieces, how long is each piece?",
        "equations": [
            "20/10 = x"
        ],
        "solutions": [
            "2"
        ]
    },
    {
        "index": 24,
        "dataset": "math-salamanders",
        "text": "Newton sells his raffle tickets for $7 each.How many tickets does he need to sell to make $70?",
        "equations": [
            "70/7 = x"
        ],
        "solutions": [
            "10"
        ]
    },
    {
        "index": 25,
        "dataset": "math-salamanders",
        "text": "An active dolphin needs to breathe 8 times a minute. How long would it take them to breathe 48 times?",
        "equations": [
            "48/8 = x"
        ],
        "solutions": [
            "6"
        ]
    },
    {
        "index": 26,
        "dataset": "math-salamanders",
        "text": "How many years in 60 months, knowing that a year has 12 months?",
        "equations": [
            "60/12 = x"
        ],
        "solutions": [
            "5"
        ]
    },
    {
        "index": 27,
        "dataset": "math-salamanders",
        "text": "There are 8 pens in a packet. I need 40 pens.How many packets should I buy?",
        "equations": [
            "40/8 = x"
        ],
        "solutions": [
            "5"
        ]
    },
    {
        "index": 28,
        "dataset": "math-salamanders",
        "text": "Newton shares 49 slugs between 7 newts.How many slugs does each newt get?",
        "equations": [
            "49/7 = x"
        ],
        "solutions": [
            "7"
        ]
    },
    {
        "index": 29,
        "dataset": "math-salamanders",
        "text": "A car game takes 5 minutes to play.How many games could I play in an hour?",
        "equations": [
            "60/5 = x"
        ],
        "solutions": [
            "12"
        ]
    },
    {
        "index": 30,
        "dataset": "math-salamanders",
        "text": "A blue whale\u2019s heart beats about 6 times in a minute.How long would it take to beat 48 times?",
        "equations": [
            "48/6 = x"
        ],
        "solutions": [
            "8"
        ]
    },
    {
        "index": 31,
        "dataset": "math-salamanders",
        "text": "A duck\u2019s heart beats about 80 times in 20 seconds.How many times would it beat in just one second?",
        "equations": [
            "80/20 = x"
        ],
        "solutions": [
            "4"
        ]
    },
    {
        "index": 32,
        "dataset": "math-salamanders",
        "text": "A snail can travel 9 feet in an hour.How long would it take to travel 72 feet at this speed?",
        "equations": [
            "72/9 = x"
        ],
        "solutions": [
            "8"
        ]
    },
    {
        "index": 33,
        "dataset": "math-salamanders",
        "text": "Captain has 30 car tyres. He fits them onto spaceships, with each car needing 5 new tyres. How many spaceships can he fit all the tyres to?",
        "equations": [
            "30/5 = x"
        ],
        "solutions": [
            "6"
        ]
    },
    {
        "index": 34,
        "dataset": "math-salamanders",
        "text": "A cake recipe needs 7 eggs to make. Sally has 14 eggs. How many cakes can she make?",
        "equations": [
            "14/7 = x"
        ],
        "solutions": [
            "2"
        ]
    },
    {
        "index": 35,
        "dataset": "math-salamanders",
        "text": "Quadra is putting pens into cases. Each pen case holds 17 pens. How many cases will he need to hold 34 pens?",
        "equations": [
            "34/17 = x"
        ],
        "solutions": [
            "2"
        ]
    },
    {
        "index": 36,
        "dataset": "math-salamanders",
        "text": "Newton shares out 36 raffle tickets equally between his 6 friends. How many raffle rickets each will have?",
        "equations": [
            "36/6 = x"
        ],
        "solutions": [
            "6"
        ]
    },
    {
        "index": 37,
        "dataset": "math-salamanders",
        "text": "A resting dolphin needs to take a breath 4 times a minute. How many minutes would it take to make 40 breaths?",
        "equations": [
            "40/4 = x"
        ],
        "solutions": [
            "10"
        ]
    },
    {
        "index": 38,
        "dataset": "math-salamanders",
        "text": "Every 4 minutes, a new car is produced by a car factory. How many whole minutes would it take to make 40 cars?",
        "equations": [
            "40/4 = x"
        ],
        "solutions": [
            "10"
        ]
    },
    {
        "index": 39,
        "dataset": "math-salamanders",
        "text": "Tyger is putting 36 eggs into boxes. Each box holds 6 eggs.How many boxes will he need to hold all the eggs?",
        "equations": [
            "36/6 = x"
        ],
        "solutions": [
            "6"
        ]
    },
    {
        "index": 40,
        "dataset": "math-salamanders",
        "text": "In a booklet, there are 15 raffle tickets. Newton needs 75 tickets.How many booklets will he need?",
        "equations": [
            "75/15 = x"
        ],
        "solutions": [
            "5"
        ]
    },
    {
        "index": 41,
        "dataset": "math-salamanders",
        "text": "Saturn orbit the sun at a speed of about 5 miles per second.How many seconds will Saturn take to travel 50 miles?",
        "equations": [
            "50/5 = x"
        ],
        "solutions": [
            "10"
        ]
    },
    {
        "index": 42,
        "dataset": "math-salamanders",
        "text": "Captain shares out 70 conkers equally between  5 friends. How many do they each get?",
        "equations": [
            "70/5 = x"
        ],
        "solutions": [
            "14"
        ]
    },
    {
        "index": 43,
        "dataset": "math-salamanders",
        "text": "Divide 65 children into teams of 5. How many teams?",
        "equations": [
            "65/5 = x"
        ],
        "solutions": [
            "13"
        ]
    },
    {
        "index": 44,
        "dataset": "math-salamanders",
        "text": "Share out 52 playing cards between 4 people. How many cards each?",
        "equations": [
            "52/4 = x"
        ],
        "solutions": [
            "13"
        ]
    },
    {
        "index": 45,
        "dataset": "math-salamanders",
        "text": "Divide 42 eggs into boxes of 6 eggs. How many boxes can I fill?",
        "equations": [
            "42/6 = x"
        ],
        "solutions": [
            "7"
        ]
    },
    {
        "index": 46,
        "dataset": "math-salamanders",
        "text": "Share 64 chocolates between 4 children. How many chocolates each?",
        "equations": [
            "64/4 = x"
        ],
        "solutions": [
            "16"
        ]
    },
    {
        "index": 47,
        "dataset": "math-salamanders",
        "text": "Divide 72 pencils into packs of 8. How many packets will I make?",
        "equations": [
            "72/8 = x"
        ],
        "solutions": [
            "9"
        ]
    },
    {
        "index": 48,
        "dataset": "math-salamanders",
        "text": "Share out 42 bones between 3 dogs. How many bones will each dog get?",
        "equations": [
            "42/3 = x"
        ],
        "solutions": [
            "14"
        ]
    },
    {
        "index": 49,
        "dataset": "math-salamanders",
        "text": "Divide 135 children into teams of 5. How many teams?",
        "equations": [
            "135/5 = x"
        ],
        "solutions": [
            "27"
        ]
    },
    {
        "index": 50,
        "dataset": "math-salamanders",
        "text": "Share out 104 playing cards between 4 people. How many cards each?",
        "equations": [
            "104/4 = x"
        ],
        "solutions": [
            "26"
        ]
    },
    {
        "index": 51,
        "dataset": "math-salamanders",
        "text": "Divide 144 eggs into boxes of 6 eggs. How many boxes can I fill?",
        "equations": [
            "144/6 = x"
        ],
        "solutions": [
            "24"
        ]
    },
    {
        "index": 52,
        "dataset": "math-salamanders",
        "text": "Share 124 chocolates between 4 children. How many chocolates each?",
        "equations": [
            "124/4 = x"
        ],
        "solutions": [
            "31"
        ]
    },
    {
        "index": 53,
        "dataset": "math-salamanders",
        "text": "Divide 176 pencils into packs of 8. How many packets will I make?",
        "equations": [
            "176/8 = x"
        ],
        "solutions": [
            "22"
        ]
    },
    {
        "index": 54,
        "dataset": "math-salamanders",
        "text": "Share out 123 bones between 3 dogs. How many bones will each dog get?",
        "equations": [
            "123/3 = x"
        ],
        "solutions": [
            "41"
        ]
    },
    {
        "index": 55,
        "dataset": "math-salamanders",
        "text": "Divide 133 children into teams of 7.  How many teams?",
        "equations": [
            "133/7 = x"
        ],
        "solutions": [
            "19"
        ]
    },
    {
        "index": 56,
        "dataset": "math-salamanders",
        "text": "Share out 104 playing cards between 8 people. How many cards each?",
        "equations": [
            "104/8 = x"
        ],
        "solutions": [
            "13"
        ]
    },
    {
        "index": 57,
        "dataset": "math-salamanders",
        "text": "Divide 192 eggs into boxes of 6 eggs. How many boxes can I fill?",
        "equations": [
            "192/6 = x"
        ],
        "solutions": [
            "32"
        ]
    },
    {
        "index": 58,
        "dataset": "math-salamanders",
        "text": "Share 162 chocolates between 9 children. How many chocolates each?",
        "equations": [
            "162/9 = x"
        ],
        "solutions": [
            "31"
        ]
    },
    {
        "index": 59,
        "dataset": "math-salamanders",
        "text": "Divide 272 pencils into packs of 8. How many packets will I make?",
        "equations": [
            "272/8 = x"
        ],
        "solutions": [
            "34"
        ]
    },
    {
        "index": 60,
        "dataset": "math-salamanders",
        "text": "Share out 259 bones between 7 dogs. How many bones will each dog get?",
        "equations": [
            "259/7 = x"
        ],
        "solutions": [
            "37"
        ]
    },
    {
        "index": 61,
        "dataset": "math-salamanders",
        "text": "Divide 135 calculators into packs of 9. How many packs?",
        "equations": [
            "135/9 = x"
        ],
        "solutions": [
            "15"
        ]
    },
    {
        "index": 62,
        "dataset": "math-salamanders",
        "text": "Share out 92 snails between 4 salamanders.How many snails does each salamander get?",
        "equations": [
            "92/4 = x"
        ],
        "solutions": [
            "23"
        ]
    },
    {
        "index": 63,
        "dataset": "math-salamanders",
        "text": "How many weeks in 84 days?",
        "equations": [
            "84/7 = x"
        ],
        "solutions": [
            "12"
        ]
    },
    {
        "index": 64,
        "dataset": "math-salamanders",
        "text": "How many years in 72 months?",
        "equations": [
            "72/12 = x"
        ],
        "solutions": [
            "6"
        ]
    },
    {
        "index": 65,
        "dataset": "math-salamanders",
        "text": "Pens come in packs of 6. I need 78 pens. How many packs should I buy?",
        "equations": [
            "78/6 = x"
        ],
        "solutions": [
            "13"
        ]
    },
    {
        "index": 66,
        "dataset": "math-salamanders",
        "text": "Sally needs to buy 132 cards for her friends. They come in packs of 6.  How many packs does she need to buy?",
        "equations": [
            "132/6 = x"
        ],
        "solutions": [
            "22"
        ]
    },
    {
        "index": 67,
        "dataset": "math-salamanders",
        "text": "Divide 207 calculators into packs of 9. How many packs?",
        "equations": [
            "207/9 = x"
        ],
        "solutions": [
            "23"
        ]
    },
    {
        "index": 68,
        "dataset": "math-salamanders",
        "text": "Share out 184 snails between 8 salamanders.How many snails does each salamander get?",
        "equations": [
            "184/8 = x"
        ],
        "solutions": [
            "23"
        ]
    },
    {
        "index": 69,
        "dataset": "math-salamanders",
        "text": "How many weeks in 406 days?",
        "equations": [
            "406/7 = x"
        ],
        "solutions": [
            "58"
        ]
    },
    {
        "index": 70,
        "dataset": "math-salamanders",
        "text": "Pens come in packs of 8. A school needs 376 pens. How many packs should they order?",
        "equations": [
            "376/8 = x"
        ],
        "solutions": [
            "47"
        ]
    },
    {
        "index": 71,
        "dataset": "math-salamanders",
        "text": "Sally needs to buy 156 cards for her friends. They come in packs of 6.  How many packs does she need to buy?",
        "equations": [
            "156/6 = x"
        ],
        "solutions": [
            "26"
        ]
    },
    {
        "index": 72,
        "dataset": "math-salamanders",
        "text": "55 children get into teams of 4. How many teams can they make?",
        "equations": [
            "55/5 = x"
        ],
        "solutions": [
            "11"
        ]
    },
    {
        "index": 73,
        "dataset": "math-salamanders",
        "text": "It takes the Earth 48 hours to spin once on its axis.How many complete spins can it make in 50 hours?",
        "equations": [
            "48/24 = x"
        ],
        "solutions": [
            "2"
        ]
    },
    {
        "index": 74,
        "dataset": "math-salamanders",
        "text": "A school bus can carry 28 children. How many buses are needed to transport 168 children?",
        "equations": [
            "168/28 = x"
        ],
        "solutions": [
            "6"
        ]
    },
    {
        "index": 75,
        "dataset": "math-salamanders",
        "text": "A piece of rope is 40m long. How many 2m long pieces can I cut from it?",
        "equations": [
            "40/2 = x"
        ],
        "solutions": [
            "20"
        ]
    },
    {
        "index": 76,
        "dataset": "math-salamanders",
        "text": "Captain has 50 gold coins which he shares out between his crew of 10. How many coins does each member get?",
        "equations": [
            "50/10 = x"
        ],
        "solutions": [
            "5"
        ]
    },
    {
        "index": 77,
        "dataset": "math-salamanders",
        "text": "How many complete weeks in 42 days?",
        "equations": [
            "42/7 = x"
        ],
        "solutions": [
            "6"
        ]
    },
    {
        "index": 78,
        "dataset": "math-salamanders",
        "text": "I spend $9 a day on lunch.How many days will $54 last me?",
        "equations": [
            "54/9 = x"
        ],
        "solutions": [
            "6"
        ]
    },
    {
        "index": 79,
        "dataset": "math-salamanders",
        "text": "A whale takes about 6 breaths a minute.How many minutes would a whale take to make 48 breaths?",
        "equations": [
            "48/6 = x"
        ],
        "solutions": [
            "8"
        ]
    },
    {
        "index": 80,
        "dataset": "math-salamanders",
        "text": "I put 108 pens into packets. Each packet can hold 6 pens.How many packets will I need to hold all the pens?",
        "equations": [
            "108/6 = x"
        ],
        "solutions": [
            "18"
        ]
    },
    {
        "index": 81,
        "dataset": "math-salamanders",
        "text": "An episode of Salamander Safari lasts 24 minutes. How many complete episodes can I watch in 120 minutes?",
        "equations": [
            "120/24 = x"
        ],
        "solutions": [
            "5"
        ]
    },
    {
        "index": 82,
        "dataset": "math-salamanders",
        "text": "A factory can produce 10 cars a minute.How many minutes would the factory take to make 100 cars?",
        "equations": [
            "100/10 = x"
        ],
        "solutions": [
            "10"
        ]
    },
    {
        "index": 83,
        "dataset": "math-salamanders",
        "text": "A raffle ticket booklet contains 28 tickets.If I need 140 tickets, how many booklets should I buy?",
        "equations": [
            "140/28 = x"
        ],
        "solutions": [
            "5"
        ]
    },
    {
        "index": 0,
        "dataset": "math-salamanders",
        "text": "The cruising speed of a Boeing  is about 570 miles per hour. How far would it travel at this speed in 2 hours?",
        "equations": [
            "570 * 2 = x"
        ],
        "solutions": [
            ""
        ]
    },
    {
        "index": 1,
        "dataset": "math-salamanders",
        "text": "A mile is about 1600 meters. How many meters in 2 miles?",
        "equations": [
            "1600 * 2 = x"
        ],
        "solutions": [
            ""
        ]
    },
    {
        "index": 2,
        "dataset": "math-salamanders",
        "text": "Calculators come in boxes of 24. A school orders 5 boxes. How many calculators will the school get?",
        "equations": [
            "24 * 5 = x"
        ],
        "solutions": [
            ""
        ]
    },
    {
        "index": 3,
        "dataset": "math-salamanders",
        "text": "There are about 80 words on a page of Captain\u2019s Sea Stories book. If a chapter has 5 pages, about how many words are there in the chapter?",
        "equations": [
            "80 * 5 = x"
        ],
        "solutions": [
            ""
        ]
    },
    {
        "index": 4,
        "dataset": "math-salamanders",
        "text": "A pack of cards contains 52 cards. How many cards in 3 packs",
        "equations": [
            "52 * 3 = x"
        ],
        "solutions": [
            ""
        ]
    },
    {
        "index": 5,
        "dataset": "math-salamanders",
        "text": "A recordable DVD can record up to 2 hours. How many hours can a box of 48 DVDs record for?",
        "equations": [
            "2 * 48 = x"
        ],
        "solutions": [
            ""
        ]
    },
    {
        "index": 6,
        "dataset": "math-salamanders",
        "text": "Sally shoots an arrow 30 yards. Flame shoots her arrow three times as far. How far did Flame\u2019s arrow go?",
        "equations": [
            "30 * 3 = x"
        ],
        "solutions": [
            ""
        ]
    },
    {
        "index": 7,
        "dataset": "math-salamanders",
        "text": "How many days in 10 weeks?",
        "equations": [
            "10 * 7 = x"
        ],
        "solutions": [
            ""
        ]
    },
    {
        "index": 8,
        "dataset": "math-salamanders",
        "text": "A pencil costs $70. How much do 2 pencils cost?",
        "equations": [
            "70 * 2 = x"
        ],
        "solutions": [
            ""
        ]
    },
    {
        "index": 9,
        "dataset": "math-salamanders",
        "text": "A baseball team has 9 players. In a tournament, there are 5 teams. How many players in total?",
        "equations": [
            "9 * 5 = x"
        ],
        "solutions": [
            ""
        ]
    },
    {
        "index": 10,
        "dataset": "math-salamanders",
        "text": "Tyger uses brick which are 4 cm tall to build a tower. His final tower is 6 bricks high. How many cm tall is it?",
        "equations": [
            "4 * 6 = x"
        ],
        "solutions": [
            ""
        ]
    },
    {
        "index": 11,
        "dataset": "math-salamanders",
        "text": "There are 50 pieces in a jigsaw puzzle. How many pieces in 4 puzzles?",
        "equations": [
            "50 * 4 = x"
        ],
        "solutions": [
            ""
        ]
    },
    {
        "index": 12,
        "dataset": "math-salamanders",
        "text": "Newton sees 12 frogs in the morning, and 7 frogs in the afternoon. How many frogs did he see in total?",
        "equations": [
            "12 + 7 = x"
        ],
        "solutions": [
            ""
        ]
    },
    {
        "index": 13,
        "dataset": "math-salamanders",
        "text": "A car travels at 40 miles per hour for 3 hours. How far has it traveled ?",
        "equations": [
            "40 * 3 = x"
        ],
        "solutions": [
            ""
        ]
    },
    {
        "index": 14,
        "dataset": "math-salamanders",
        "text": "A scale model of a Boeing is 7m long. The real plane is 10 times longer. How long is the actual plane?",
        "equations": [
            "7 * 10 = x"
        ],
        "solutions": [
            ""
        ]
    },
    {
        "index": 15,
        "dataset": "math-salamanders",
        "text": "A box of eggs holds 6 eggs. If I had 20 full boxes, how many eggs would I have?",
        "equations": [
            "6 * 20 = x"
        ],
        "solutions": [
            ""
        ]
    },
    {
        "index": 16,
        "dataset": "math-salamanders",
        "text": "there is pack of 8 pens in the shop. I buy 12 packs. How many pens have I bought?",
        "equations": [
            "8 * 12 = x"
        ],
        "solutions": [
            ""
        ]
    },
    {
        "index": 17,
        "dataset": "math-salamanders",
        "text": "A box of chocolates contains 30 chocolates. How many chocolates in 4 boxes?",
        "equations": [
            "30 * 4 = x"
        ],
        "solutions": [
            ""
        ]
    },
    {
        "index": 18,
        "dataset": "math-salamanders",
        "text": "How many days in 20 weeks?",
        "equations": [
            "20 * 7 = x"
        ],
        "solutions": [
            ""
        ]
    },
    {
        "index": 19,
        "dataset": "math-salamanders",
        "text": "A paperclip is made from 10cm of wire. How many paperclips could be made from 70cm of wire?",
        "equations": [
            "70 / 10 = x"
        ],
        "solutions": [
            ""
        ]
    },
    {
        "index": 20,
        "dataset": "math-salamanders",
        "text": "A ream contains 500 sheets of paper. How many sheets in 2 reams?",
        "equations": [
            "500 * 2 = x"
        ],
        "solutions": [
            ""
        ]
    },
    {
        "index": 21,
        "dataset": "math-salamanders",
        "text": "How many seconds in 3 minutes?",
        "equations": [
            "3 * 60 = x"
        ],
        "solutions": [
            ""
        ]
    },
    {
        "index": 22,
        "dataset": "math-salamanders",
        "text": "A pack of pens contains 3 pens. How many pens in 2 packs?",
        "equations": [
            "3 * 2 = x"
        ],
        "solutions": [
            ""
        ]
    },
    {
        "index": 23,
        "dataset": "math-salamanders",
        "text": "A paperclip is made from 10cm of wire. How much wire would I need for 3 paperclips?",
        "equations": [
            "10 * 3 = x"
        ],
        "solutions": [
            ""
        ]
    },
    {
        "index": 24,
        "dataset": "math-salamanders",
        "text": "Sally runs for 8 miles a day. How far will she run in 3 days?",
        "equations": [
            "8 * 3 = x"
        ],
        "solutions": [
            ""
        ]
    },
    {
        "index": 25,
        "dataset": "math-salamanders",
        "text": "I buy 5 apples on Monday, and 7 more on Tuesday. How many have I bought in total?",
        "equations": [
            "5 + 7 = x"
        ],
        "solutions": [
            ""
        ]
    },
    {
        "index": 26,
        "dataset": "math-salamanders",
        "text": "A multipack bag of crisps holds 6 packets. How many packs of crisps in 2 multipacks?",
        "equations": [
            "6 * 2 = x"
        ],
        "solutions": [
            ""
        ]
    },
    {
        "index": 27,
        "dataset": "math-salamanders",
        "text": "It takes a rocket 7 seconds to travel a mile. How long would it take the rocket to go 2 miles at that speed?",
        "equations": [
            "7 * 2 = x"
        ],
        "solutions": [
            ""
        ]
    },
    {
        "index": 28,
        "dataset": "math-salamanders",
        "text": "A ream of paper is 4cm thick. How thick would 5 reams be?",
        "equations": [
            "4 * 5 = x"
        ],
        "solutions": [
            ""
        ]
    },
    {
        "index": 29,
        "dataset": "math-salamanders",
        "text": "You get 6 apples in a bag. How many apples in 2 bags?",
        "equations": [
            "6 * 2 = x"
        ],
        "solutions": [
            ""
        ]
    },
    {
        "index": 30,
        "dataset": "math-salamanders",
        "text": "I share 12 chocolates equally between my 3 friends. How many chocolates do they each get?",
        "equations": [
            "12 / 3 = x"
        ],
        "solutions": [
            ""
        ]
    },
    {
        "index": 31,
        "dataset": "math-salamanders",
        "text": "A pen costs $5 to buy. How much would 4 pens cost?",
        "equations": [
            "5 * 4 = x"
        ],
        "solutions": [
            ""
        ]
    },
    {
        "index": 32,
        "dataset": "math-salamanders",
        "text": "A PP battery has 9 volts. If I connect 2 batteries together, how many volts would the circuit have?",
        "equations": [
            "9 * 2 = x"
        ],
        "solutions": [
            ""
        ]
    },
    {
        "index": 33,
        "dataset": "math-salamanders",
        "text": "Tyger downloads 3 new apps a week for his tablet. How many apps will he have after 4 weeks?",
        "equations": [
            "3 * 4 = x"
        ],
        "solutions": [
            ""
        ]
    },
    {
        "index": 34,
        "dataset": "math-salamanders",
        "text": "Donuts come in packs of 6. I buy 2 packs. How many have I bought?",
        "equations": [
            "6 * 2 = x"
        ],
        "solutions": [
            ""
        ]
    },
    {
        "index": 35,
        "dataset": "math-salamanders",
        "text": "How many days in 2 weeks?",
        "equations": [
            "2 * 7 = x"
        ],
        "solutions": [
            ""
        ]
    },
    {
        "index": 36,
        "dataset": "math-salamanders",
        "text": "Tyger takes 10 minutes to run a mile. How long would it take him to run 3 miles at the same pace?",
        "equations": [
            "10 * 3 = x"
        ],
        "solutions": [
            ""
        ]
    },
    {
        "index": 37,
        "dataset": "math-salamanders",
        "text": "Bulbs come in packs of 10. How many bulbs in 5 packs?",
        "equations": [
            "10 * 5 = x"
        ],
        "solutions": [
            ""
        ]
    },
    {
        "index": 38,
        "dataset": "math-salamanders",
        "text": "A lighthouse flashes its light 5 times a minute. How many times would it flash in 6 minutes?",
        "equations": [
            "5 * 6 = x"
        ],
        "solutions": [
            ""
        ]
    },
    {
        "index": 39,
        "dataset": "math-salamanders",
        "text": "A spider has 8 legs. How many legs would 3 spiders have?",
        "equations": [
            "8 * 3 = x"
        ],
        "solutions": [
            ""
        ]
    },
    {
        "index": 40,
        "dataset": "math-salamanders",
        "text": "In a field there are 5 sheep and 7 cows. How many animals in total?",
        "equations": [
            "5 + 7 = x"
        ],
        "solutions": [
            ""
        ]
    },
    {
        "index": 41,
        "dataset": "math-salamanders",
        "text": "I buy 4 bunches of bananas. There are 6 bananas in each bunch. How many bananas have I bought?",
        "equations": [
            "4 * 6 = x"
        ],
        "solutions": [
            ""
        ]
    },
    {
        "index": 42,
        "dataset": "math-salamanders",
        "text": "A car travels for 2hours at 54miles per hour. How far has it travelled?",
        "equations": [
            "2 * 54 = x"
        ],
        "solutions": [
            ""
        ]
    },
    {
        "index": 43,
        "dataset": "math-salamanders",
        "text": "A packet of M&Ms holds 30 candy sweets. How many sweets in 3 packets?",
        "equations": [
            "30 * 3 = x"
        ],
        "solutions": [
            ""
        ]
    },
    {
        "index": 44,
        "dataset": "math-salamanders",
        "text": "A digital camera is able to take photos at 32 frames per second. How many frames could the camera take in 3 seconds?",
        "equations": [
            "32 * 3 = x"
        ],
        "solutions": [
            ""
        ]
    },
    {
        "index": 45,
        "dataset": "math-salamanders",
        "text": "A school orders pencils in packs of 12. How many pencils in 5 packs?",
        "equations": [
            "12 * 5 = x"
        ],
        "solutions": [
            ""
        ]
    },
    {
        "index": 46,
        "dataset": "math-salamanders",
        "text": "A piece of rope is 18 foot long. If I cut the rope into 6 equal lengths, how long will each piece be?",
        "equations": [
            "18 / 6 = x"
        ],
        "solutions": [
            ""
        ]
    },
    {
        "index": 47,
        "dataset": "math-salamanders",
        "text": "A window cleaner earns about $15 an hour. How much will he have earned in a day where he works for 3 hours?",
        "equations": [
            "15 * 3 = x"
        ],
        "solutions": [
            ""
        ]
    },
    {
        "index": 48,
        "dataset": "math-salamanders",
        "text": "A banana contains about 81 calories. How many calories in 2 bananas?",
        "equations": [
            "81 * 2 = x"
        ],
        "solutions": [
            ""
        ]
    },
    {
        "index": 49,
        "dataset": "math-salamanders",
        "text": "The cruising speed of a jumbo jet is about 900 km per hour. How far could it travel in 2 hours?",
        "equations": [
            "900 * 2 = x"
        ],
        "solutions": [
            ""
        ]
    },
    {
        "index": 50,
        "dataset": "math-salamanders",
        "text": "There are 0.7 mg of iron in an artichoke. How many grams of iron in 2 artichockes?",
        "equations": [
            "0.7 * 2 = x"
        ],
        "solutions": [
            ""
        ]
    },
    {
        "index": 51,
        "dataset": "math-salamanders",
        "text": "A bottle holds 0.5 pint of liquid. How much would 5 bottles hold?",
        "equations": [
            "0.5 * 5 = x"
        ],
        "solutions": [
            ""
        ]
    },
    {
        "index": 52,
        "dataset": "math-salamanders",
        "text": "How many seconds in 5 minutes?",
        "equations": [
            "5 * 60 = x"
        ],
        "solutions": [
            ""
        ]
    },
    {
        "index": 53,
        "dataset": "math-salamanders",
        "text": "An athletics track is 400m long. If I ran 3 times round the track, how far would that be?",
        "equations": [
            "400 * 3 = x"
        ],
        "solutions": [
            ""
        ]
    },
    {
        "index": 54,
        "dataset": "math-salamanders",
        "text": "A football weighs 450g. How much would 2 footballs weigh?",
        "equations": [
            "450 * 2 = x"
        ],
        "solutions": [
            ""
        ]
    },
    {
        "index": 55,
        "dataset": "math-salamanders",
        "text": "10 sheets of card are about 20mm thick. How thick is one sheet of card?",
        "equations": [
            "20 / 10 = x"
        ],
        "solutions": [
            ""
        ]
    },
    {
        "index": 56,
        "dataset": "math-salamanders",
        "text": "A pack of pens contains 8 pens. A box contains 15 packets. How many pens in a box?",
        "equations": [
            "8 * 15 = x"
        ],
        "solutions": [
            ""
        ]
    },
    {
        "index": 57,
        "dataset": "math-salamanders",
        "text": "A foot is about 30cm. A basketball court is 50ft wide. How many cm wide is this?",
        "equations": [
            "30 * 50 = x"
        ],
        "solutions": [
            ""
        ]
    },
    {
        "index": 58,
        "dataset": "math-salamanders",
        "text": "A sailfish can swim at speeds of 30 meters per second. How far could it travel in 15 seconds at this speed?",
        "equations": [
            "30 * 15 = x"
        ],
        "solutions": [
            ""
        ]
    },
    {
        "index": 59,
        "dataset": "math-salamanders",
        "text": "A pint is 568 ml. How many ml in a 2 pint carton?",
        "equations": [
            "568 * 2 = x"
        ],
        "solutions": [
            ""
        ]
    },
    {
        "index": 60,
        "dataset": "math-salamanders",
        "text": "A pair of scissors costs $2.50. How much would 4 pairs cost at this price?",
        "equations": [
            "2.50 * 4 = x"
        ],
        "solutions": [
            ""
        ]
    },
    {
        "index": 61,
        "dataset": "math-salamanders",
        "text": "An M&Ms chocolate packet contains 36 chocolate sweets. How many sweets in a multipack bag of 5 packets?",
        "equations": [
            "36 * 5 = x"
        ],
        "solutions": [
            ""
        ]
    },
    {
        "index": 62,
        "dataset": "math-salamanders",
        "text": "There are on average 150 words on each page of the book \u2018How to Look after your Salamander\u2019. The book contains 6 pages. How many words are there in the book?",
        "equations": [
            "150 * 6 = x"
        ],
        "solutions": [
            ""
        ]
    },
    {
        "index": 63,
        "dataset": "math-salamanders",
        "text": "A cruise ship travels at 25 miles per hour. How many hours will it take to make a 100 mile journey?",
        "equations": [
            "100 / 25 = x"
        ],
        "solutions": [
            ""
        ]
    },
    {
        "index": 64,
        "dataset": "math-salamanders",
        "text": "Flame sells raffle tickets for $2 each. How many tickets does she need to sell to make $70?",
        "equations": [
            "70 / 2 = x"
        ],
        "solutions": [
            ""
        ]
    },
    {
        "index": 65,
        "dataset": "math-salamanders",
        "text": "There is 180 calories in a chocolate bar. How many calories in a pack of 3 bars?",
        "equations": [
            "180 * 3 = x"
        ],
        "solutions": [
            ""
        ]
    },
    {
        "index": 66,
        "dataset": "math-salamanders",
        "text": "There is 8mg of iron in a cup of Captain\u2019s cereal. There are 6 cups in a packet. How much iron is in a packet?",
        "equations": [
            "8 * 6 = x"
        ],
        "solutions": [
            ""
        ]
    },
    {
        "index": 67,
        "dataset": "math-salamanders",
        "text": "There are about 28 grams in an ounce. The weight of a baseball is about 5 ounces. How many grams?",
        "equations": [
            "28 * 5 = x"
        ],
        "solutions": [
            ""
        ]
    },
    {
        "index": 68,
        "dataset": "math-salamanders",
        "text": "Newton runs 1.5 miles a day. How far will he have run in 12 days?",
        "equations": [
            "1.5 * 12 = x"
        ],
        "solutions": [
            ""
        ]
    },
    {
        "index": 69,
        "dataset": "math-salamanders",
        "text": "There is 4g of fat in a peanut butter cup. Tyger eats 2 cups. How many grams of fat has he eaten?",
        "equations": [
            "4 * 2 = x"
        ],
        "solutions": [
            ""
        ]
    },
    {
        "index": 70,
        "dataset": "math-salamanders",
        "text": "There are 5 pens in a pack. How many pens in 2 packs?",
        "equations": [
            "5 * 2 = x"
        ],
        "solutions": [
            ""
        ]
    },
    {
        "index": 71,
        "dataset": "math-salamanders",
        "text": "How many socks are there in 3 pairs",
        "equations": [
            "3 * 2 = x"
        ],
        "solutions": [
            ""
        ]
    },
    {
        "index": 72,
        "dataset": "math-salamanders",
        "text": "I download 3 games onto my tablet. The next day I download 2 more. How many have I downloaded?",
        "equations": [
            "3 + 2 = x"
        ],
        "solutions": [
            ""
        ]
    },
    {
        "index": 73,
        "dataset": "math-salamanders",
        "text": "I buy 3 packs of peanut butter cups. Each pack has 4 cups. How many cups are there in total?",
        "equations": [
            "3 * 4 = x"
        ],
        "solutions": [
            ""
        ]
    },
    {
        "index": 74,
        "dataset": "math-salamanders",
        "text": "A guitar has 6 strings. How many strings would I need to restring 2 guitars?",
        "equations": [
            "6 * 2 = x"
        ],
        "solutions": [
            ""
        ]
    },
    {
        "index": 75,
        "dataset": "math-salamanders",
        "text": "I buy 3 packs of ping-pong balls. Each pack has 5 balls. How many balls are there?",
        "equations": [
            "3 * 5 = x"
        ],
        "solutions": [
            ""
        ]
    },
    {
        "index": 76,
        "dataset": "math-salamanders",
        "text": "An insect has 6 legs. How many legs do 2 insects have?",
        "equations": [
            "6 * 2 = x"
        ],
        "solutions": [
            ""
        ]
    },
    {
        "index": 77,
        "dataset": "math-salamanders",
        "text": "A tablet takes 3 hours to fully charge. How many hours would it take to charge 4 tablets one after the other?",
        "equations": [
            "3 * 4 = x"
        ],
        "solutions": [
            ""
        ]
    },
    {
        "index": 78,
        "dataset": "math-salamanders",
        "text": "There are 4 seasons in a year. How many seasons in 2 years?",
        "equations": [
            "4 * 2 = x"
        ],
        "solutions": [
            ""
        ]
    },
    {
        "index": 79,
        "dataset": "math-salamanders",
        "text": "Captain catches 5 frogs but 3 of them escape. How many are left?",
        "equations": [
            "5 - 3 = x"
        ],
        "solutions": [
            ""
        ]
    },
    {
        "index": 80,
        "dataset": "math-salamanders",
        "text": "I buy 2packs of ten pens. How many pens have I bought?",
        "equations": [
            "2 * 10 = x"
        ],
        "solutions": [
            ""
        ]
    },
    {
        "index": 81,
        "dataset": "math-salamanders",
        "text": "Newton can run 3 meters in a minute. How far could he run in 2 minutes?",
        "equations": [
            "3 * 2 = x"
        ],
        "solutions": [
            ""
        ]
    },
    {
        "index": 82,
        "dataset": "math-salamanders",
        "text": "Eggs come in boxes of 6. How many eggs in 2 boxes?",
        "equations": [
            "6 * 2 = x"
        ],
        "solutions": [
            ""
        ]
    },
    {
        "index": 83,
        "dataset": "math-salamanders",
        "text": "I buy 4 packs of 10 hotdogs for a barbeque. How many hotdogs in total?",
        "equations": [
            "4 * 10 = x"
        ],
        "solutions": [
            ""
        ]
    },
    {
        "index": 84,
        "dataset": "math-salamanders",
        "text": "In a racing game, I score 5 points on level 1, and 6 points on level 2. How many points have I scored in total?",
        "equations": [
            "5 + 6 = x"
        ],
        "solutions": [
            ""
        ]
    },
    {
        "index": 85,
        "dataset": "math-salamanders",
        "text": "My favorite music track on YouTube lasts 4 minutes. How long will it take me to listen to it 5 times?",
        "equations": [
            "4 * 5 = x"
        ],
        "solutions": [
            ""
        ]
    },
    {
        "index": 86,
        "dataset": "math-salamanders",
        "text": "Tyger builds a tower which is 10 inches tall. Flame\u2019s tower is 5 times taller. How tall is Flame\u2019s tower?",
        "equations": [
            "10 * 5 = x"
        ],
        "solutions": [
            ""
        ]
    },
    {
        "index": 87,
        "dataset": "math-salamanders",
        "text": "Captain Salamander eats 2 worms a day. How many will he eat in a week?",
        "equations": [
            "2 * 7 = x"
        ],
        "solutions": [
            ""
        ]
    },
    {
        "index": 88,
        "dataset": "math-salamanders",
        "text": "A rocket firework explodes into 5 stars. How many stars will 7 rockets make?",
        "equations": [
            "5 * 7 = x"
        ],
        "solutions": [
            ""
        ]
    }
]